Reporter,Year,Partner,Product categories,Indicator Type,Indicator,Indicator Value
Armenia,2016,Russian Federation,All Products,Export,Trade (US$ Mil)-Top 5 Export Partner,372.986732
Armenia,2016,Bulgaria,All Products,Export,Trade (US$ Mil)-Top 5 Export Partner,163.439937
Armenia,2016,Georgia,All Products,Export,Trade (US$ Mil)-Top 5 Export Partner,141.168802
Armenia,2016,Iraq,All Products,Export,Trade (US$ Mil)-Top 5 Export Partner,140.529224
Armenia,2016,Germany,All Products,Export,Trade (US$ Mil)-Top 5 Export Partner,135.133099
Armenia,2016,Russian Federation,All Products,Import,Trade (US$ Mil)-Top 5 Import Partner,990.575985
Armenia,2016,China,All Products,Import,Trade (US$ Mil)-Top 5 Import Partner,363.469585
Armenia,2016,Turkey,All Products,Import,Trade (US$ Mil)-Top 5 Import Partner,168.95032
Armenia,2016,"Iran, Islamic Rep.",All Products,Import,Trade (US$ Mil)-Top 5 Import Partner,164.894391
Armenia,2016,Germany,All Products,Import,Trade (US$ Mil)-Top 5 Import Partner,160.432881
Armenia,2016,World,Vegetable,Export,Export(US$ Mil),1.247766
Armenia,2016,World,Food Products,Export,Export(US$ Mil),418.345578
Armenia,2016,World,Minerals,Export,Export(US$ Mil),417.683225
Armenia,2016,World,Fuels,Export,Export(US$ Mil),61.432518
Armenia,2016,World,Chemicals,Export,Export(US$ Mil),18.443512
Armenia,2016,World,Plastic or Rubber,Export,Export(US$ Mil),9.089898
Armenia,2016,World,Hides and Skins,Export,Export(US$ Mil),8.098767
Armenia,2016,World,Wood,Export,Export(US$ Mil),2.932924
Armenia,2016,World,Textiles and Clothing,Export,Export(US$ Mil),94.795897
Armenia,2016,World,Footwear,Export,Export(US$ Mil),2.415078
Armenia,2016,World,Stone and Glass,Export,Export(US$ Mil),378.150287
Armenia,2016,World,Metals,Export,Export(US$ Mil),223.932122
Armenia,2016,World,Mach and Elec,Export,Export(US$ Mil),26.635805
Armenia,2016,World,Transportation,Export,Export(US$ Mil),13.533378
Armenia,2016,World,Miscellaneous,Export,Export(US$ Mil),131.052753
Armenia,2016,World,Raw materials,Export,Export(US$ Mil),447.580926
Armenia,2016,World,Intermediate goods,Export,Export(US$ Mil),469.587619
Armenia,2016,World,Consumer goods,Export,Export(US$ Mil),764.235191
Armenia,2016,World,Capital goods,Export,Export(US$ Mil),35.890808
Armenia,2016,World,Raw materials,Import,Import(US$ Mil),224.126668
Armenia,2016,World,Intermediate goods,Import,Import(US$ Mil),708.560338
Armenia,2016,World,Consumer goods,Import,Import(US$ Mil),1570.555452
Armenia,2016,World,Capital goods,Import,Import(US$ Mil),568.48049
Armenia,2016,World,All Products,Export,Exports (in US$ Mil),1807.78951
Armenia,2016,World,All Products,Import,Imports (in US$ Mil),3218.457706
Armenia,2016,World,All Products,Tariff,Duty Free Imports (US$ Thousand),1951975.469
Armenia,2016,...,...,Development,Trade Balance (current US$ Mil),-1071.9784586
Armenia,2016,...,...,Development,GDP (current US$ Mil),10547.331235
Armenia,2016,...,...,Tariff,No. Of Tariff Agreement,5
Armenia,2016,...,...,Import,No. Of Import partners,164
Armenia,2016,...,...,Import,No. Of Import products,3494
Armenia,2016,...,...,Export,No. Of Export partners,103
Armenia,2016,...,...,Export,No. Of Export products,1620
Armenia,2016,...,...,Others,Population,2924816
Armenia,2016,...,...,Others,Ease of Doing Business Rank,38
Armenia,2016,...,...,Others,Trading Across Borders Rank,48
Armenia,2013,...,...,Others,CPIA Trade Ratings,4.5
Armenia,2014,...,...,Others,LPI Rank,92
Armenia,2014,...,...,Others,LPI Score,2.672723
Armenia,,...,...,Others,Services Trade Restrictions Index - Over All,11.4
Armenia,2016,Russian Federation,All Products,Export,Partner share(%)-Top 5 Export Partner,20.6322
Armenia,2016,Bulgaria,All Products,Export,Partner share(%)-Top 5 Export Partner,9.0409
Armenia,2016,Georgia,All Products,Export,Partner share(%)-Top 5 Export Partner,7.8089
Armenia,2016,Iraq,All Products,Export,Partner share(%)-Top 5 Export Partner,7.7735
Armenia,2016,Germany,All Products,Export,Partner share(%)-Top 5 Export Partner,7.475
Armenia,2016,Russian Federation,All Products,Import,Partner share(%)-Top 5 Import Partner,30.778
Armenia,2016,China,All Products,Import,Partner share(%)-Top 5 Import Partner,11.2933
Armenia,2016,Turkey,All Products,Import,Partner share(%)-Top 5 Import Partner,5.2494
Armenia,2016,"Iran, Islamic Rep.",All Products,Import,Partner share(%)-Top 5 Import Partner,5.1234
Armenia,2016,Germany,All Products,Import,Partner share(%)-Top 5 Import Partner,4.9848
Armenia,2016,World,Vegetable,Export,Export Product share(%),0.069
Armenia,2016,World,Food Products,Export,Export Product share(%),23.1413
Armenia,2016,World,Minerals,Export,Export Product share(%),23.1046
Armenia,2016,World,Fuels,Export,Export Product share(%),3.3982
Armenia,2016,World,Chemicals,Export,Export Product share(%),1.0202
Armenia,2016,World,Plastic or Rubber,Export,Export Product share(%),0.5028
Armenia,2016,World,Hides and Skins,Export,Export Product share(%),0.448
Armenia,2016,World,Wood,Export,Export Product share(%),0.1622
Armenia,2016,World,Textiles and Clothing,Export,Export Product share(%),5.2437
Armenia,2016,World,Footwear,Export,Export Product share(%),0.1336
Armenia,2016,World,Stone and Glass,Export,Export Product share(%),20.9178
Armenia,2016,World,Metals,Export,Export Product share(%),12.3871
Armenia,2016,World,Mach and Elec,Export,Export Product share(%),1.4734
Armenia,2016,World,Transportation,Export,Export Product share(%),0.7486
Armenia,2016,World,Miscellaneous,Export,Export Product share(%),7.2493
Armenia,2016,World,Raw materials,Export,Export Product share(%),24.7585
Armenia,2016,World,Intermediate goods,Export,Export Product share(%),25.9758
Armenia,2016,World,Consumer goods,Export,Export Product share(%),42.2746
Armenia,2016,World,Capital goods,Export,Export Product share(%),1.9853
Armenia,2016,World,Raw materials,Import,Import Product share(%),6.9638
Armenia,2016,World,Intermediate goods,Import,Import Product share(%),22.0155
Armenia,2016,World,Consumer goods,Import,Import Product share(%),48.7984
Armenia,2016,World,Capital goods,Import,Import Product share(%),17.6631
Armenia,2016,World,Raw materials,Tariff,Weighted Average (%),0.981296219712741
Armenia,2016,World,Intermediate goods,Tariff,Weighted Average (%),2.18756987370936
Armenia,2016,World,Consumer goods,Tariff,Weighted Average (%),2.65710076810046
Armenia,2016,World,Capital goods,Tariff,Weighted Average (%),1.41692586788266
Armenia,2016,World,All Products,Trade Indicator,World Growth (%),-4.42938104262537
Armenia,2016,World,All Products,Trade Indicator,Country Growth (%),17.9894204027953
Armenia,2016,World,All Products,Tariff,Simple Average (%),4.92112269426967
Armenia,2016,World,All Products,Tariff,Weighted Average (%),2.13043850031669
Armenia,2016,World,All Products,Tariff,Maximum Rate (%),100
Armenia,2016,World,All Products,Tariff,Duty Free Tariff Lines Share (%),36.199659118578
Armenia,2016,...,...,Trade Indicator,Index of export market penetration,1.85258576101778
Armenia,2016,...,...,Trade Indicator,HH Market concentration index,0.120279772532205
Armenia,2016,...,...,Development,Trade Balance (% of GDP),-10.163504252
Armenia,2016,...,...,Development,Trade in services (% of GDP),31.704110242
Armenia,2016,...,...,Development,Trade (% of GDP),76.449004731
Armenia,2016,...,...,Development,"GNI per capita, Atlas method (current US$)",3760
