Reporter,Year,Partner,Product categories,Indicator Type,Indicator,Indicator Value
Afghanistan,2016,Pakistan,All Products,Export,Trade (US$ Mil)-Top 5 Export Partner,283.316886
Afghanistan,2016,India,All Products,Export,Trade (US$ Mil)-Top 5 Export Partner,230.037526
Afghanistan,2016,"Iran, Islamic Rep.",All Products,Export,Trade (US$ Mil)-Top 5 Export Partner,18.822947
Afghanistan,2016,Turkey,All Products,Export,Trade (US$ Mil)-Top 5 Export Partner,12.147012
Afghanistan,2016,Iraq,All Products,Export,Trade (US$ Mil)-Top 5 Export Partner,11.18477
Afghanistan,2016,"Iran, Islamic Rep.",All Products,Import,Trade (US$ Mil)-Top 5 Import Partner,1265.139067
Afghanistan,2016,Pakistan,All Products,Import,Trade (US$ Mil)-Top 5 Import Partner,1198.759334
Afghanistan,2016,China,All Products,Import,Trade (US$ Mil)-Top 5 Import Partner,1092.707519
Afghanistan,2016,Kazakhstan,All Products,Import,Trade (US$ Mil)-Top 5 Import Partner,621.624666
Afghanistan,2016,Uzbekistan,All Products,Import,Trade (US$ Mil)-Top 5 Import Partner,399.14442
Afghanistan,2016,World,Animal,Export,Export(US$ Mil),3.937507
Afghanistan,2016,World,Vegetable,Export,Export(US$ Mil),433.042224
Afghanistan,2016,World,Food Products,Export,Export(US$ Mil),0.09072
Afghanistan,2016,World,Minerals,Export,Export(US$ Mil),6.707272
Afghanistan,2016,World,Fuels,Export,Export(US$ Mil),
Afghanistan,2016,World,Chemicals,Export,Export(US$ Mil),
Afghanistan,2016,World,Plastic or Rubber,Export,Export(US$ Mil),
Afghanistan,2016,World,Hides and Skins,Export,Export(US$ Mil),0.042089
Afghanistan,2016,World,Wood,Export,Export(US$ Mil),0.111456
Afghanistan,2016,World,Textiles and Clothing,Export,Export(US$ Mil),38.984153
Afghanistan,2016,World,Footwear,Export,Export(US$ Mil),
Afghanistan,2016,World,Stone and Glass,Export,Export(US$ Mil),
Afghanistan,2016,World,Metals,Export,Export(US$ Mil),
Afghanistan,2016,World,Mach and Elec,Export,Export(US$ Mil),
Afghanistan,2016,World,Transportation,Export,Export(US$ Mil),
Afghanistan,2016,World,Miscellaneous,Export,Export(US$ Mil),113.539918
Afghanistan,2016,World,Raw materials,Export,Export(US$ Mil),408.974381
Afghanistan,2016,World,Intermediate goods,Export,Export(US$ Mil),3.796318
Afghanistan,2016,World,Consumer goods,Export,Export(US$ Mil),70.144723
Afghanistan,2016,World,Capital goods,Export,Export(US$ Mil),
Afghanistan,2016,World,Raw materials,Import,Import(US$ Mil),692.957659
Afghanistan,2016,World,Intermediate goods,Import,Import(US$ Mil),1757.809091
Afghanistan,2016,World,Consumer goods,Import,Import(US$ Mil),1013.537962
Afghanistan,2016,World,Capital goods,Import,Import(US$ Mil),727.405172
Afghanistan,2016,World,All Products,Export,Exports (in US$ Mil),596.455337
Afghanistan,2016,World,All Products,Import,Imports (in US$ Mil),6534.140413
Afghanistan,2013,World,All Products,Tariff,Duty Free Imports (US$ Thousand),59424.342
Afghanistan,2016,...,...,Development,Trade Balance (current US$ Mil),-8202.0513565
Afghanistan,2016,...,...,Development,GDP (current US$ Mil),19469.022208
Afghanistan,2013,...,...,Tariff,No. Of Tariff Agreement,2
Afghanistan,2016,...,...,Import,No. Of Import partners,77
Afghanistan,2016,...,...,Import,No. Of Import products,69
Afghanistan,2016,...,...,Export,No. Of Export partners,48
Afghanistan,2016,...,...,Export,No. Of Export products,42
Afghanistan,2016,...,...,Others,Population,34656032
Afghanistan,2016,...,...,Others,Ease of Doing Business Rank,183
Afghanistan,2016,...,...,Others,Trading Across Borders Rank,175
Afghanistan,2016,...,...,Others,CPIA Trade Ratings,3.5
Afghanistan,2014,...,...,Others,LPI Rank,158
Afghanistan,2014,...,...,Others,LPI Score,2.069573
Afghanistan,2012,...,...,Others,No Of NTM Affected Products (HS 6 Digit),1328
Afghanistan,2012,...,...,Others,No Of NTM Measures,30
Afghanistan,2016,Pakistan,All Products,Export,Partner share(%)-Top 5 Export Partner,47.5001
Afghanistan,2016,India,All Products,Export,Partner share(%)-Top 5 Export Partner,38.5674
Afghanistan,2016,"Iran, Islamic Rep.",All Products,Export,Partner share(%)-Top 5 Export Partner,3.1558
Afghanistan,2016,Turkey,All Products,Export,Partner share(%)-Top 5 Export Partner,2.0365
Afghanistan,2016,Iraq,All Products,Export,Partner share(%)-Top 5 Export Partner,1.8752
Afghanistan,2016,"Iran, Islamic Rep.",All Products,Import,Partner share(%)-Top 5 Import Partner,19.362
Afghanistan,2016,Pakistan,All Products,Import,Partner share(%)-Top 5 Import Partner,18.3461
Afghanistan,2016,China,All Products,Import,Partner share(%)-Top 5 Import Partner,16.723
Afghanistan,2016,Kazakhstan,All Products,Import,Partner share(%)-Top 5 Import Partner,9.5135
Afghanistan,2016,Uzbekistan,All Products,Import,Partner share(%)-Top 5 Import Partner,6.1086
Afghanistan,2016,World,Animal,Export,Export Product share(%),0.6602
Afghanistan,2016,World,Vegetable,Export,Export Product share(%),72.6026
Afghanistan,2016,World,Food Products,Export,Export Product share(%),0.0152
Afghanistan,2016,World,Minerals,Export,Export Product share(%),1.1245
Afghanistan,2016,World,Fuels,Export,Export Product share(%),
Afghanistan,2016,World,Chemicals,Export,Export Product share(%),
Afghanistan,2016,World,Plastic or Rubber,Export,Export Product share(%),
Afghanistan,2016,World,Hides and Skins,Export,Export Product share(%),0.0071
Afghanistan,2016,World,Wood,Export,Export Product share(%),0.0187
Afghanistan,2016,World,Textiles and Clothing,Export,Export Product share(%),6.536
Afghanistan,2016,World,Footwear,Export,Export Product share(%),
Afghanistan,2016,World,Stone and Glass,Export,Export Product share(%),
Afghanistan,2016,World,Metals,Export,Export Product share(%),
Afghanistan,2016,World,Mach and Elec,Export,Export Product share(%),
Afghanistan,2016,World,Transportation,Export,Export Product share(%),
Afghanistan,2016,World,Miscellaneous,Export,Export Product share(%),19.0358
Afghanistan,2016,World,Raw materials,Export,Export Product share(%),68.5675
Afghanistan,2016,World,Intermediate goods,Export,Export Product share(%),0.6365
Afghanistan,2016,World,Consumer goods,Export,Export Product share(%),11.7603
Afghanistan,2016,World,Capital goods,Export,Export Product share(%),
Afghanistan,2016,World,Raw materials,Import,Import Product share(%),10.6052
Afghanistan,2016,World,Intermediate goods,Import,Import Product share(%),26.9019
Afghanistan,2016,World,Consumer goods,Import,Import Product share(%),15.5114
Afghanistan,2016,World,Capital goods,Import,Import Product share(%),11.1324
Afghanistan,2013,World,Raw materials,Tariff,Weighted Average (%),9.34831105336164
Afghanistan,2013,World,Intermediate goods,Tariff,Weighted Average (%),3.95749274892673
Afghanistan,2013,World,Consumer goods,Tariff,Weighted Average (%),9.42223091592646
Afghanistan,2016,World,All Products,Trade Indicator,World Growth (%),-4.42938104262537
Afghanistan,2016,World,All Products,Trade Indicator,Country Growth (%),10.5924621315233
Afghanistan,2013,World,All Products,Tariff,Simple Average (%),6.4717192547472
Afghanistan,2013,World,All Products,Tariff,Weighted Average (%),7.02495729847313
Afghanistan,2013,World,All Products,Tariff,Maximum Rate (%),50
Afghanistan,2013,World,All Products,Tariff,Duty Free Tariff Lines Share (%),0.145623998835008
Afghanistan,2016,...,...,Trade Indicator,Index of export market penetration,1.71793293037212
Afghanistan,2016,...,...,Trade Indicator,HH Market concentration index,0.253535955671818
Afghanistan,2016,...,...,Development,Trade Balance (% of GDP),-42.1287277244
Afghanistan,2016,...,...,Development,Trade (% of GDP),55.921226852
Afghanistan,2016,...,...,Development,"GNI per capita, Atlas method (current US$)",580
