Reporter,Year,Partner,Product categories,Indicator Type,Indicator,Indicator Value
Belarus,2016,Russian Federation,All Products,Export,Trade (US$ Mil)-Top 5 Export Partner,10901.669
Belarus,2016,Ukraine,All Products,Export,Trade (US$ Mil)-Top 5 Export Partner,2833.2943
Belarus,2016,United Kingdom,All Products,Export,Trade (US$ Mil)-Top 5 Export Partner,1076.8439
Belarus,2016,Germany,All Products,Export,Trade (US$ Mil)-Top 5 Export Partner,936.3436
Belarus,2016,Netherlands,All Products,Export,Trade (US$ Mil)-Top 5 Export Partner,926.6143
Belarus,2016,Russian Federation,All Products,Import,Trade (US$ Mil)-Top 5 Import Partner,14973.0189
Belarus,2016,China,All Products,Import,Trade (US$ Mil)-Top 5 Import Partner,2117.2955
Belarus,2016,Germany,All Products,Import,Trade (US$ Mil)-Top 5 Import Partner,1318.6758
Belarus,2016,Poland,All Products,Import,Trade (US$ Mil)-Top 5 Import Partner,1181.2864
Belarus,2016,Ukraine,All Products,Import,Trade (US$ Mil)-Top 5 Import Partner,977.3329
Belarus,2016,World,Animal,Export,Export(US$ Mil),2680.4405
Belarus,2016,World,Vegetable,Export,Export(US$ Mil),513.5779
Belarus,2016,World,Food Products,Export,Export(US$ Mil),871.0582
Belarus,2016,World,Minerals,Export,Export(US$ Mil),205.2031
Belarus,2016,World,Fuels,Export,Export(US$ Mil),4848.5928
Belarus,2016,World,Chemicals,Export,Export(US$ Mil),3183.7536
Belarus,2016,World,Plastic or Rubber,Export,Export(US$ Mil),1249.385
Belarus,2016,World,Hides and Skins,Export,Export(US$ Mil),70.1529
Belarus,2016,World,Wood,Export,Export(US$ Mil),1027.5149
Belarus,2016,World,Textiles and Clothing,Export,Export(US$ Mil),1072.1275
Belarus,2016,World,Footwear,Export,Export(US$ Mil),62.6753
Belarus,2016,World,Stone and Glass,Export,Export(US$ Mil),441.5502
Belarus,2016,World,Metals,Export,Export(US$ Mil),1614.0258
Belarus,2016,World,Mach and Elec,Export,Export(US$ Mil),1979.0849
Belarus,2016,World,Transportation,Export,Export(US$ Mil),1923.4552
Belarus,2016,World,Miscellaneous,Export,Export(US$ Mil),1794.7567
Belarus,2016,World,Raw materials,Export,Export(US$ Mil),2069.9954
Belarus,2016,World,Intermediate goods,Export,Export(US$ Mil),6992.09099999999
Belarus,2016,World,Consumer goods,Export,Export(US$ Mil),9859.27229999999
Belarus,2016,World,Capital goods,Export,Export(US$ Mil),3645.5134
Belarus,2016,World,Raw materials,Import,Import(US$ Mil),6811.8369
Belarus,2016,World,Intermediate goods,Import,Import(US$ Mil),5680.0946
Belarus,2016,World,Consumer goods,Import,Import(US$ Mil),8982.2064
Belarus,2016,World,Capital goods,Import,Import(US$ Mil),5140.2878
Belarus,2016,World,All Products,Export,Exports (in US$ Mil),23537.3545
Belarus,2016,World,All Products,Import,Imports (in US$ Mil),27609.8837
Belarus,2016,World,All Products,Tariff,Duty Free Imports (US$ Thousand),18488072.4
Belarus,2016,...,...,Development,Trade Balance (current US$ Mil),-44.153885
Belarus,2016,...,...,Development,GDP (current US$ Mil),47433.442293
Belarus,2016,...,...,Tariff,No. Of Tariff Agreement,7
Belarus,2016,...,...,Import,No. Of Import partners,178
Belarus,2016,...,...,Import,No. Of Import products,4234
Belarus,2016,...,...,Export,No. Of Export partners,161
Belarus,2016,...,...,Export,No. Of Export products,3676
Belarus,2016,...,...,Others,Population,9507120
Belarus,2016,...,...,Others,Ease of Doing Business Rank,37
Belarus,2016,...,...,Others,Trading Across Borders Rank,30
Belarus,2014,...,...,Others,LPI Rank,99
Belarus,2014,...,...,Others,LPI Score,2.638168
Belarus,2009,...,...,Others,Overall Trade Restrictiveness Index -  Applied Tariff,0.0801941
Belarus,2009,...,...,Others,Overall Trade Restrictiveness Index - MFN Tariff,0.111352
Belarus,,...,...,Others,Services Trade Restrictions Index - Over All,35.1
Belarus,2016,Russian Federation,All Products,Export,Partner share(%)-Top 5 Export Partner,46.3165
Belarus,2016,Ukraine,All Products,Export,Partner share(%)-Top 5 Export Partner,12.0374
Belarus,2016,United Kingdom,All Products,Export,Partner share(%)-Top 5 Export Partner,4.575
Belarus,2016,Germany,All Products,Export,Partner share(%)-Top 5 Export Partner,3.9781
Belarus,2016,Netherlands,All Products,Export,Partner share(%)-Top 5 Export Partner,3.9368
Belarus,2016,Russian Federation,All Products,Import,Partner share(%)-Top 5 Import Partner,54.2306
Belarus,2016,China,All Products,Import,Partner share(%)-Top 5 Import Partner,7.6686
Belarus,2016,Germany,All Products,Import,Partner share(%)-Top 5 Import Partner,4.7761
Belarus,2016,Poland,All Products,Import,Partner share(%)-Top 5 Import Partner,4.2785
Belarus,2016,Ukraine,All Products,Import,Partner share(%)-Top 5 Import Partner,3.5398
Belarus,2016,World,Animal,Export,Export Product share(%),11.388
Belarus,2016,World,Vegetable,Export,Export Product share(%),2.182
Belarus,2016,World,Food Products,Export,Export Product share(%),3.7007
Belarus,2016,World,Minerals,Export,Export Product share(%),0.8718
Belarus,2016,World,Fuels,Export,Export Product share(%),20.5996
Belarus,2016,World,Chemicals,Export,Export Product share(%),13.5264
Belarus,2016,World,Plastic or Rubber,Export,Export Product share(%),5.3081
Belarus,2016,World,Hides and Skins,Export,Export Product share(%),0.298
Belarus,2016,World,Wood,Export,Export Product share(%),4.3655
Belarus,2016,World,Textiles and Clothing,Export,Export Product share(%),4.555
Belarus,2016,World,Footwear,Export,Export Product share(%),0.2663
Belarus,2016,World,Stone and Glass,Export,Export Product share(%),1.876
Belarus,2016,World,Metals,Export,Export Product share(%),6.8573
Belarus,2016,World,Mach and Elec,Export,Export Product share(%),8.4083
Belarus,2016,World,Transportation,Export,Export Product share(%),8.1719
Belarus,2016,World,Miscellaneous,Export,Export Product share(%),7.6251
Belarus,2016,World,Raw materials,Export,Export Product share(%),8.7945
Belarus,2016,World,Intermediate goods,Export,Export Product share(%),29.7064
Belarus,2016,World,Consumer goods,Export,Export Product share(%),41.8878
Belarus,2016,World,Capital goods,Export,Export Product share(%),15.4882
Belarus,2016,World,Raw materials,Import,Import Product share(%),24.6717
Belarus,2016,World,Intermediate goods,Import,Import Product share(%),20.5727
Belarus,2016,World,Consumer goods,Import,Import Product share(%),32.5326
Belarus,2016,World,Capital goods,Import,Import Product share(%),18.6176
Belarus,2016,World,Raw materials,Tariff,Weighted Average (%),1.23965956595022
Belarus,2016,World,Intermediate goods,Tariff,Weighted Average (%),2.11166467137719
Belarus,2016,World,Consumer goods,Tariff,Weighted Average (%),2.04446297483309
Belarus,2016,World,Capital goods,Tariff,Weighted Average (%),1.72474057057452
Belarus,2016,World,All Products,Trade Indicator,World Growth (%),-4.42938104262537
Belarus,2016,World,All Products,Trade Indicator,Country Growth (%),-10.1856148798926
Belarus,2016,World,All Products,Tariff,Simple Average (%),5.04075417520283
Belarus,2016,World,All Products,Tariff,Weighted Average (%),1.8185308267735
Belarus,2016,World,All Products,Tariff,Maximum Rate (%),100
Belarus,2016,World,All Products,Tariff,Duty Free Tariff Lines Share (%),33.2785032730871
Belarus,2016,...,...,Trade Indicator,Index of export market penetration,3.79365424069767
Belarus,2016,...,...,Trade Indicator,HH Market concentration index,0.380338822711832
Belarus,2016,...,...,Development,Trade Balance (% of GDP),-0.0930859810000015
Belarus,2016,...,...,Development,Trade in services (% of GDP),23.317514954
Belarus,2016,...,...,Development,Trade (% of GDP),125.42074227
Belarus,2016,...,...,Development,"GNI per capita, Atlas method (current US$)",5600
