Reporter,Year,Partner,Product categories,Indicator Type,Indicator,Indicator Value
Canada,2016,United States,All Products,Export,Trade (US$ Mil)-Top 5 Export Partner,296607.266017
Canada,2016,China,All Products,Export,Trade (US$ Mil)-Top 5 Export Partner,15832.275983
Canada,2016,United Kingdom,All Products,Export,Trade (US$ Mil)-Top 5 Export Partner,12907.490266
Canada,2016,Japan,All Products,Export,Trade (US$ Mil)-Top 5 Export Partner,8089.163101
Canada,2016,Mexico,All Products,Export,Trade (US$ Mil)-Top 5 Export Partner,5761.602546
Canada,2016,United States,All Products,Import,Trade (US$ Mil)-Top 5 Import Partner,210250.896474
Canada,2016,China,All Products,Import,Trade (US$ Mil)-Top 5 Import Partner,48641.696239
Canada,2016,Mexico,All Products,Import,Trade (US$ Mil)-Top 5 Import Partner,25075.246229
Canada,2016,Germany,All Products,Import,Trade (US$ Mil)-Top 5 Import Partner,13045.172576
Canada,2016,Japan,All Products,Import,Trade (US$ Mil)-Top 5 Import Partner,11936.210216
Canada,2016,World,Animal,Export,Export(US$ Mil),11285.145068
Canada,2016,World,Vegetable,Export,Export(US$ Mil),23156.519581
Canada,2016,World,Food Products,Export,Export(US$ Mil),12912.091723
Canada,2016,World,Minerals,Export,Export(US$ Mil),7292.702978
Canada,2016,World,Fuels,Export,Export(US$ Mil),62312.802581
Canada,2016,World,Chemicals,Export,Export(US$ Mil),25847.469139
Canada,2016,World,Plastic or Rubber,Export,Export(US$ Mil),15298.478175
Canada,2016,World,Hides and Skins,Export,Export(US$ Mil),950.474812
Canada,2016,World,Wood,Export,Export(US$ Mil),27670.633238
Canada,2016,World,Textiles and Clothing,Export,Export(US$ Mil),3004.751093
Canada,2016,World,Footwear,Export,Export(US$ Mil),345.651034
Canada,2016,World,Stone and Glass,Export,Export(US$ Mil),19495.172506
Canada,2016,World,Metals,Export,Export(US$ Mil),27673.978983
Canada,2016,World,Mach and Elec,Export,Export(US$ Mil),42649.47601
Canada,2016,World,Transportation,Export,Export(US$ Mil),75127.938048
Canada,2016,World,Miscellaneous,Export,Export(US$ Mil),34047.818162
Canada,2016,World,Raw materials,Export,Export(US$ Mil),82343.476306
Canada,2016,World,Intermediate goods,Export,Export(US$ Mil),97982.0265359999
Canada,2016,World,Consumer goods,Export,Export(US$ Mil),118208.142735
Canada,2016,World,Capital goods,Export,Export(US$ Mil),70310.309903
Canada,2016,World,Raw materials,Import,Import(US$ Mil),32331.648464
Canada,2016,World,Intermediate goods,Import,Import(US$ Mil),70066.6639219999
Canada,2016,World,Consumer goods,Import,Import(US$ Mil),145189.226509
Canada,2016,World,Capital goods,Import,Import(US$ Mil),147191.343614
Canada,2016,World,All Products,Export,Exports (in US$ Mil),389071.103128
Canada,2016,World,All Products,Import,Imports (in US$ Mil),402966.133661
Canada,2016,World,All Products,Tariff,Duty Free Imports (US$ Thousand),338713570.026
Canada,2016,...,...,Development,Trade Balance (current US$ Mil),-36190.59391
Canada,2016,...,...,Development,GDP (current US$ Mil),1529760.4922
Canada,2016,...,...,Tariff,No. Of Tariff Agreement,21
Canada,2016,...,...,Import,No. Of Import partners,223
Canada,2016,...,...,Import,No. Of Import products,4562
Canada,2016,...,...,Export,No. Of Export partners,220
Canada,2016,...,...,Export,No. Of Export products,4394
Canada,2016,...,...,Others,Population,36286425
Canada,2016,...,...,Others,Ease of Doing Business Rank,22
Canada,2016,...,...,Others,Trading Across Borders Rank,46
Canada,2014,...,...,Others,LPI Rank,12
Canada,2014,...,...,Others,LPI Score,3.855498
Canada,2015,...,...,Others,No Of NTM Affected Products (HS 6 Digit),5319
Canada,2015,...,...,Others,No Of NTM Measures,90
Canada,2009,...,...,Others,Overall Trade Restrictiveness Index -  Applied Tariff,0.0484893
Canada,2009,...,...,Others,Overall Trade Restrictiveness Index - MFN Tariff,0.0709994
Canada,,...,...,Others,Services Trade Restrictions Index - Over All,21.6
Canada,2013,...,...,Others,Temporary Trade Barriers in Effect - Simple Average,1.394808173
Canada,2013,...,...,Others,Temporary Trade Barriers in Effect - Weighted Average,0.454475224
Canada,2016,United States,All Products,Export,Partner share(%)-Top 5 Export Partner,76.2347
Canada,2016,China,All Products,Export,Partner share(%)-Top 5 Export Partner,4.0693
Canada,2016,United Kingdom,All Products,Export,Partner share(%)-Top 5 Export Partner,3.3175
Canada,2016,Japan,All Products,Export,Partner share(%)-Top 5 Export Partner,2.0791
Canada,2016,Mexico,All Products,Export,Partner share(%)-Top 5 Export Partner,1.4809
Canada,2016,United States,All Products,Import,Partner share(%)-Top 5 Import Partner,52.1758
Canada,2016,China,All Products,Import,Partner share(%)-Top 5 Import Partner,12.0709
Canada,2016,Mexico,All Products,Import,Partner share(%)-Top 5 Import Partner,6.2227
Canada,2016,Germany,All Products,Import,Partner share(%)-Top 5 Import Partner,3.2373
Canada,2016,Japan,All Products,Import,Partner share(%)-Top 5 Import Partner,2.9621
Canada,2016,World,Animal,Export,Export Product share(%),2.9005
Canada,2016,World,Vegetable,Export,Export Product share(%),5.9517
Canada,2016,World,Food Products,Export,Export Product share(%),3.3187
Canada,2016,World,Minerals,Export,Export Product share(%),1.8744
Canada,2016,World,Fuels,Export,Export Product share(%),16.0158
Canada,2016,World,Chemicals,Export,Export Product share(%),6.6434
Canada,2016,World,Plastic or Rubber,Export,Export Product share(%),3.9321
Canada,2016,World,Hides and Skins,Export,Export Product share(%),0.2443
Canada,2016,World,Wood,Export,Export Product share(%),7.112
Canada,2016,World,Textiles and Clothing,Export,Export Product share(%),0.7723
Canada,2016,World,Footwear,Export,Export Product share(%),0.0888
Canada,2016,World,Stone and Glass,Export,Export Product share(%),5.0107
Canada,2016,World,Metals,Export,Export Product share(%),7.1128
Canada,2016,World,Mach and Elec,Export,Export Product share(%),10.9619
Canada,2016,World,Transportation,Export,Export Product share(%),19.3096
Canada,2016,World,Miscellaneous,Export,Export Product share(%),8.7511
Canada,2016,World,Raw materials,Export,Export Product share(%),21.1641
Canada,2016,World,Intermediate goods,Export,Export Product share(%),25.1836
Canada,2016,World,Consumer goods,Export,Export Product share(%),30.3821
Canada,2016,World,Capital goods,Export,Export Product share(%),18.0713
Canada,2016,World,Raw materials,Import,Import Product share(%),8.0234
Canada,2016,World,Intermediate goods,Import,Import Product share(%),17.3877
Canada,2016,World,Consumer goods,Import,Import Product share(%),36.0301
Canada,2016,World,Capital goods,Import,Import Product share(%),36.527
Canada,2016,World,Raw materials,Tariff,Weighted Average (%),2.05482718984689
Canada,2016,World,Intermediate goods,Tariff,Weighted Average (%),0.252240542203972
Canada,2016,World,Consumer goods,Tariff,Weighted Average (%),3.73577995853073
Canada,2016,World,Capital goods,Tariff,Weighted Average (%),0.156107520928132
Canada,2016,World,All Products,Trade Indicator,World Growth (%),-4.42938104262537
Canada,2016,World,All Products,Trade Indicator,Country Growth (%),-3.8995924606433
Canada,2016,World,All Products,Tariff,Simple Average (%),2.94720905044329
Canada,2016,World,All Products,Tariff,Weighted Average (%),1.55685943361728
Canada,2016,World,All Products,Tariff,Maximum Rate (%),832.570373535156
Canada,2016,World,All Products,Tariff,Duty Free Tariff Lines Share (%),69.8378769878949
Canada,2016,...,...,Trade Indicator,Index of export market penetration,14.9906758271646
Canada,2016,...,...,Trade Indicator,HH Market concentration index,0.533854321823113
Canada,2016,...,...,Development,Trade Balance (% of GDP),-2.365768634
Canada,2016,...,...,Development,Trade in services (% of GDP),11.672513545
Canada,2016,...,...,Development,Trade (% of GDP),64.364916372
Canada,2016,...,...,Development,"GNI per capita, Atlas method (current US$)",43660
