Reporter,Year,Partner,Product categories,Indicator Type,Indicator,Indicator Value
Cape Verde,2016,Spain,All Products,Export,Trade (US$ Mil)-Top 5 Export Partner,43.724338
Cape Verde,2016,Portugal,All Products,Export,Trade (US$ Mil)-Top 5 Export Partner,11.575643
Cape Verde,2016,Turkey,All Products,Export,Trade (US$ Mil)-Top 5 Export Partner,2.509531
Cape Verde,2016,Italy,All Products,Export,Trade (US$ Mil)-Top 5 Export Partner,0.741813
Cape Verde,2016,United States,All Products,Export,Trade (US$ Mil)-Top 5 Export Partner,0.674448
Cape Verde,2016,Portugal,All Products,Import,Trade (US$ Mil)-Top 5 Import Partner,312.602099
Cape Verde,2016,Spain,All Products,Import,Trade (US$ Mil)-Top 5 Import Partner,75.761139
Cape Verde,2016,Netherlands,All Products,Import,Trade (US$ Mil)-Top 5 Import Partner,42.850904
Cape Verde,2016,China,All Products,Import,Trade (US$ Mil)-Top 5 Import Partner,32.164574
Cape Verde,2016,Brazil,All Products,Import,Trade (US$ Mil)-Top 5 Import Partner,23.092096
Cape Verde,2016,World,Animal,Export,Export(US$ Mil),23.068002
Cape Verde,2016,World,Vegetable,Export,Export(US$ Mil),0.051387
Cape Verde,2016,World,Food Products,Export,Export(US$ Mil),27.324432
Cape Verde,2016,World,Minerals,Export,Export(US$ Mil),0.000377
Cape Verde,2016,World,Fuels,Export,Export(US$ Mil),
Cape Verde,2016,World,Chemicals,Export,Export(US$ Mil),0.062591
Cape Verde,2016,World,Plastic or Rubber,Export,Export(US$ Mil),
Cape Verde,2016,World,Hides and Skins,Export,Export(US$ Mil),0.001629
Cape Verde,2016,World,Wood,Export,Export(US$ Mil),
Cape Verde,2016,World,Textiles and Clothing,Export,Export(US$ Mil),6.277022
Cape Verde,2016,World,Footwear,Export,Export(US$ Mil),3.434708
Cape Verde,2016,World,Stone and Glass,Export,Export(US$ Mil),
Cape Verde,2016,World,Metals,Export,Export(US$ Mil),
Cape Verde,2016,World,Mach and Elec,Export,Export(US$ Mil),
Cape Verde,2016,World,Transportation,Export,Export(US$ Mil),
Cape Verde,2016,World,Miscellaneous,Export,Export(US$ Mil),0.140933
Cape Verde,2016,World,Raw materials,Export,Export(US$ Mil),23.107872
Cape Verde,2016,World,Intermediate goods,Export,Export(US$ Mil),3.856398
Cape Verde,2016,World,Consumer goods,Export,Export(US$ Mil),33.39681
Cape Verde,2016,World,Capital goods,Export,Export(US$ Mil),
Cape Verde,2016,World,Raw materials,Import,Import(US$ Mil),63.507705
Cape Verde,2016,World,Intermediate goods,Import,Import(US$ Mil),117.408067
Cape Verde,2016,World,Consumer goods,Import,Import(US$ Mil),361.841356
Cape Verde,2016,World,Capital goods,Import,Import(US$ Mil),129.402066
Cape Verde,2016,World,All Products,Export,Exports (in US$ Mil),60.36108
Cape Verde,2016,World,All Products,Import,Imports (in US$ Mil),672.16014
Cape Verde,2015,World,All Products,Tariff,Duty Free Imports (US$ Thousand),162036.838
Cape Verde,2016,...,...,Development,GDP (current US$ Mil),1617.4674358
Cape Verde,2015,...,...,Tariff,No. Of Tariff Agreement,1
Cape Verde,2016,...,...,Import,No. Of Import partners,113
Cape Verde,2016,...,...,Import,No. Of Import products,3201
Cape Verde,2016,...,...,Export,No. Of Export partners,15
Cape Verde,2016,...,...,Export,No. Of Export products,40
Cape Verde,2016,...,...,Others,Population,539560
Cape Verde,2016,...,...,Others,Ease of Doing Business Rank,129
Cape Verde,2016,...,...,Others,Trading Across Borders Rank,113
Cape Verde,2016,...,...,Others,CPIA Trade Ratings,4.5
Cape Verde,2014,...,...,Others,No Of NTM Affected Products (HS 6 Digit),5205
Cape Verde,2014,...,...,Others,No Of NTM Measures,44
Cape Verde,2009,...,...,Others,Overall Trade Restrictiveness Index -  Applied Tariff,0.1016876
Cape Verde,2009,...,...,Others,Overall Trade Restrictiveness Index - MFN Tariff,0.1016876
Cape Verde,2016,Spain,All Products,Export,Partner share(%)-Top 5 Export Partner,72.438
Cape Verde,2016,Portugal,All Products,Export,Partner share(%)-Top 5 Export Partner,19.1773
Cape Verde,2016,Turkey,All Products,Export,Partner share(%)-Top 5 Export Partner,4.1575
Cape Verde,2016,Italy,All Products,Export,Partner share(%)-Top 5 Export Partner,1.229
Cape Verde,2016,United States,All Products,Export,Partner share(%)-Top 5 Export Partner,1.1174
Cape Verde,2016,Portugal,All Products,Import,Partner share(%)-Top 5 Import Partner,46.5071
Cape Verde,2016,Spain,All Products,Import,Partner share(%)-Top 5 Import Partner,11.2713
Cape Verde,2016,Netherlands,All Products,Import,Partner share(%)-Top 5 Import Partner,6.3751
Cape Verde,2016,China,All Products,Import,Partner share(%)-Top 5 Import Partner,4.7853
Cape Verde,2016,Brazil,All Products,Import,Partner share(%)-Top 5 Import Partner,3.4355
Cape Verde,2016,World,Animal,Export,Export Product share(%),38.2167
Cape Verde,2016,World,Vegetable,Export,Export Product share(%),0.0851
Cape Verde,2016,World,Food Products,Export,Export Product share(%),45.2683
Cape Verde,2016,World,Minerals,Export,Export Product share(%),0.0006
Cape Verde,2016,World,Fuels,Export,Export Product share(%),
Cape Verde,2016,World,Chemicals,Export,Export Product share(%),0.1037
Cape Verde,2016,World,Plastic or Rubber,Export,Export Product share(%),
Cape Verde,2016,World,Hides and Skins,Export,Export Product share(%),0.0027
Cape Verde,2016,World,Wood,Export,Export Product share(%),
Cape Verde,2016,World,Textiles and Clothing,Export,Export Product share(%),10.3991
Cape Verde,2016,World,Footwear,Export,Export Product share(%),5.6903
Cape Verde,2016,World,Stone and Glass,Export,Export Product share(%),
Cape Verde,2016,World,Metals,Export,Export Product share(%),
Cape Verde,2016,World,Mach and Elec,Export,Export Product share(%),
Cape Verde,2016,World,Transportation,Export,Export Product share(%),
Cape Verde,2016,World,Miscellaneous,Export,Export Product share(%),0.2335
Cape Verde,2016,World,Raw materials,Export,Export Product share(%),38.2827
Cape Verde,2016,World,Intermediate goods,Export,Export Product share(%),6.3889
Cape Verde,2016,World,Consumer goods,Export,Export Product share(%),55.3284
Cape Verde,2016,World,Capital goods,Export,Export Product share(%),
Cape Verde,2016,World,Raw materials,Import,Import Product share(%),9.4483
Cape Verde,2016,World,Intermediate goods,Import,Import Product share(%),17.4673
Cape Verde,2016,World,Consumer goods,Import,Import Product share(%),53.8326
Cape Verde,2016,World,Capital goods,Import,Import Product share(%),19.2517
Cape Verde,2015,World,Raw materials,Tariff,Weighted Average (%),14.2366154331549
Cape Verde,2015,World,Intermediate goods,Tariff,Weighted Average (%),4.724074808041
Cape Verde,2015,World,Consumer goods,Tariff,Weighted Average (%),14.4965842003405
Cape Verde,2015,World,Capital goods,Tariff,Weighted Average (%),5.12765575744289
Cape Verde,2016,World,All Products,Trade Indicator,World Growth (%),-4.42938104262537
Cape Verde,2016,World,All Products,Trade Indicator,Country Growth (%),11.3943038015612
Cape Verde,2015,World,All Products,Tariff,Simple Average (%),14.820470231149
Cape Verde,2015,World,All Products,Tariff,Weighted Average (%),10.8865666594852
Cape Verde,2015,World,All Products,Tariff,Maximum Rate (%),50
Cape Verde,2015,World,All Products,Tariff,Duty Free Tariff Lines Share (%),28.7445533769063
Cape Verde,2016,...,...,Trade Indicator,Index of export market penetration,1.24913885124649
Cape Verde,2016,...,...,Trade Indicator,HH Market concentration index,0.338333883620642
Cape Verde,2016,...,...,Development,Trade in services (% of GDP),58.312073679
Cape Verde,2016,...,...,Development,"GNI per capita, Atlas method (current US$)",2970
