Reporter,Year,Partner,Product categories,Indicator Type,Indicator,Indicator Value
Denmark,2016,Germany,All Products,Export,Trade (US$ Mil)-Top 5 Export Partner,14313.609905
Denmark,2016,Special Categories,All Products,Export,Trade (US$ Mil)-Top 5 Export Partner,11108.574771
Denmark,2016,Sweden,All Products,Export,Trade (US$ Mil)-Top 5 Export Partner,10669.576494
Denmark,2016,Norway,All Products,Export,Trade (US$ Mil)-Top 5 Export Partner,5872.09745
Denmark,2016,United Kingdom,All Products,Export,Trade (US$ Mil)-Top 5 Export Partner,5651.222492
Denmark,2016,Germany,All Products,Import,Trade (US$ Mil)-Top 5 Import Partner,18411.435212
Denmark,2016,Sweden,All Products,Import,Trade (US$ Mil)-Top 5 Import Partner,10319.078768
Denmark,2016,Netherlands,All Products,Import,Trade (US$ Mil)-Top 5 Import Partner,6776.550915
Denmark,2016,China,All Products,Import,Trade (US$ Mil)-Top 5 Import Partner,6441.265951
Denmark,2016,Norway,All Products,Import,Trade (US$ Mil)-Top 5 Import Partner,3533.783182
Denmark,2016,World,Animal,Export,Export(US$ Mil),9894.983796
Denmark,2016,World,Vegetable,Export,Export(US$ Mil),2437.037869
Denmark,2016,World,Food Products,Export,Export(US$ Mil),6457.267791
Denmark,2016,World,Minerals,Export,Export(US$ Mil),247.216789
Denmark,2016,World,Fuels,Export,Export(US$ Mil),3368.605745
Denmark,2016,World,Chemicals,Export,Export(US$ Mil),11045.941436
Denmark,2016,World,Plastic or Rubber,Export,Export(US$ Mil),2631.032016
Denmark,2016,World,Hides and Skins,Export,Export(US$ Mil),1260.065209
Denmark,2016,World,Wood,Export,Export(US$ Mil),2002.160779
Denmark,2016,World,Textiles and Clothing,Export,Export(US$ Mil),4978.405655
Denmark,2016,World,Footwear,Export,Export(US$ Mil),604.420815
Denmark,2016,World,Stone and Glass,Export,Export(US$ Mil),1033.76799
Denmark,2016,World,Metals,Export,Export(US$ Mil),5204.087054
Denmark,2016,World,Mach and Elec,Export,Export(US$ Mil),21582.555447
Denmark,2016,World,Transportation,Export,Export(US$ Mil),3365.076096
Denmark,2016,World,Miscellaneous,Export,Export(US$ Mil),18242.152239
Denmark,2016,World,Raw materials,Export,Export(US$ Mil),11592.456749
Denmark,2016,World,Intermediate goods,Export,Export(US$ Mil),14397.882108
Denmark,2016,World,Consumer goods,Export,Export(US$ Mil),32274.341284
Denmark,2016,World,Capital goods,Export,Export(US$ Mil),25834.791616
Denmark,2016,World,Raw materials,Import,Import(US$ Mil),7632.46872
Denmark,2016,World,Intermediate goods,Import,Import(US$ Mil),14898.825724
Denmark,2016,World,Consumer goods,Import,Import(US$ Mil),36673.939286
Denmark,2016,World,Capital goods,Import,Import(US$ Mil),23961.436371
Denmark,2016,World,All Products,Export,Exports (in US$ Mil),94354.776728
Denmark,2016,World,All Products,Import,Imports (in US$ Mil),85132.609261
Denmark,2016,...,...,Development,Trade Balance (current US$ Mil),21050.19768
Denmark,2016,...,...,Development,GDP (current US$ Mil),306142.93725
Denmark,2016,...,...,Import,No. Of Import partners,213
Denmark,2016,...,...,Import,No. Of Import products,4442
Denmark,2016,...,...,Export,No. Of Export partners,224
Denmark,2016,...,...,Export,No. Of Export products,4245
Denmark,2016,...,...,Others,Population,5731118
Denmark,2016,...,...,Others,Ease of Doing Business Rank,3
Denmark,2016,...,...,Others,Trading Across Borders Rank,1
Denmark,2014,...,...,Others,LPI Rank,17
Denmark,2014,...,...,Others,LPI Score,3.78252
Denmark,,...,...,Others,Services Trade Restrictions Index - Over All,21
Denmark,2016,Germany,All Products,Export,Partner share(%)-Top 5 Export Partner,15.17
Denmark,2016,Special Categories,All Products,Export,Partner share(%)-Top 5 Export Partner,11.7732
Denmark,2016,Sweden,All Products,Export,Partner share(%)-Top 5 Export Partner,11.3079
Denmark,2016,Norway,All Products,Export,Partner share(%)-Top 5 Export Partner,6.2234
Denmark,2016,United Kingdom,All Products,Export,Partner share(%)-Top 5 Export Partner,5.9893
Denmark,2016,Germany,All Products,Import,Partner share(%)-Top 5 Import Partner,21.6268
Denmark,2016,Sweden,All Products,Import,Partner share(%)-Top 5 Import Partner,12.1212
Denmark,2016,Netherlands,All Products,Import,Partner share(%)-Top 5 Import Partner,7.96
Denmark,2016,China,All Products,Import,Partner share(%)-Top 5 Import Partner,7.5662
Denmark,2016,Norway,All Products,Import,Partner share(%)-Top 5 Import Partner,4.1509
Denmark,2016,World,Animal,Export,Export Product share(%),10.487
Denmark,2016,World,Vegetable,Export,Export Product share(%),2.5828
Denmark,2016,World,Food Products,Export,Export Product share(%),6.8436
Denmark,2016,World,Minerals,Export,Export Product share(%),0.262
Denmark,2016,World,Fuels,Export,Export Product share(%),3.5701
Denmark,2016,World,Chemicals,Export,Export Product share(%),11.7068
Denmark,2016,World,Plastic or Rubber,Export,Export Product share(%),2.7884
Denmark,2016,World,Hides and Skins,Export,Export Product share(%),1.3355
Denmark,2016,World,Wood,Export,Export Product share(%),2.1219
Denmark,2016,World,Textiles and Clothing,Export,Export Product share(%),5.2763
Denmark,2016,World,Footwear,Export,Export Product share(%),0.6406
Denmark,2016,World,Stone and Glass,Export,Export Product share(%),1.0956
Denmark,2016,World,Metals,Export,Export Product share(%),5.5154
Denmark,2016,World,Mach and Elec,Export,Export Product share(%),22.8738
Denmark,2016,World,Transportation,Export,Export Product share(%),3.5664
Denmark,2016,World,Miscellaneous,Export,Export Product share(%),19.3336
Denmark,2016,World,Raw materials,Export,Export Product share(%),12.286
Denmark,2016,World,Intermediate goods,Export,Export Product share(%),15.2593
Denmark,2016,World,Consumer goods,Export,Export Product share(%),34.2053
Denmark,2016,World,Capital goods,Export,Export Product share(%),27.3805
Denmark,2016,World,Raw materials,Import,Import Product share(%),8.9654
Denmark,2016,World,Intermediate goods,Import,Import Product share(%),17.5007
Denmark,2016,World,Consumer goods,Import,Import Product share(%),43.0786
Denmark,2016,World,Capital goods,Import,Import Product share(%),28.146
Denmark,2016,World,All Products,Trade Indicator,World Growth (%),-4.42938104262537
Denmark,2016,World,All Products,Trade Indicator,Country Growth (%),-2.26432450728556
Denmark,2016,...,...,Trade Indicator,Index of export market penetration,15.1392699824434
Denmark,2016,...,...,Trade Indicator,HH Market concentration index,0.0623098724979997
Denmark,2016,...,...,Development,Trade Balance (% of GDP),6.875937711
Denmark,2016,...,...,Development,Trade in services (% of GDP),37.263544812
Denmark,2016,...,...,Development,Trade (% of GDP),99.322130287
Denmark,2016,...,...,Development,"GNI per capita, Atlas method (current US$)",56730
