Reporter,Year,Partner,Product categories,Indicator Type,Indicator,Indicator Value
,2016,United States,All Products,Export,Trade (US$ Mil)-Top 5 Export Partner,706844.49319
,2016,China,All Products,Export,Trade (US$ Mil)-Top 5 Export Partner,690869.243971
,2016,"Hong Kong, China",All Products,Export,Trade (US$ Mil)-Top 5 Export Partner,421652.934829
,2016,Japan,All Products,Export,Trade (US$ Mil)-Top 5 Export Partner,256315.88507
,2016,"Korea, Rep.",All Products,Export,Trade (US$ Mil)-Top 5 Export Partner,191064.657445
,2016,China,All Products,Import,Trade (US$ Mil)-Top 5 Import Partner,676137.982361
,2016,United States,All Products,Import,Trade (US$ Mil)-Top 5 Import Partner,359892.702833
,2016,Japan,All Products,Import,Trade (US$ Mil)-Top 5 Import Partner,304339.981028
,2016,"Other Asia, nes",All Products,Import,Trade (US$ Mil)-Top 5 Import Partner,273289.743615
,2016,"Korea, Rep.",All Products,Import,Trade (US$ Mil)-Top 5 Import Partner,263561.769401
,2016,World,Animal,Export,Export(US$ Mil),57435.787569
,2016,World,Vegetable,Export,Export(US$ Mil),89885.310434
,2016,World,Food Products,Export,Export(US$ Mil),74520.400826
,2016,World,Minerals,Export,Export(US$ Mil),62731.13548
,2016,World,Fuels,Export,Export(US$ Mil),210688.328798
,2016,World,Chemicals,Export,Export(US$ Mil),252753.654471
,2016,World,Plastic or Rubber,Export,Export(US$ Mil),199264.507474
,2016,World,Hides and Skins,Export,Export(US$ Mil),43400.955648
,2016,World,Wood,Export,Export(US$ Mil),77351.637287
,2016,World,Textiles and Clothing,Export,Export(US$ Mil),328879.865601
,2016,World,Footwear,Export,Export(US$ Mil),71005.10889
,2016,World,Stone and Glass,Export,Export(US$ Mil),219118.993188
,2016,World,Metals,Export,Export(US$ Mil),289807.885329
,2016,World,Mach and Elec,Export,Export(US$ Mil),1916647.027477
,2016,World,Transportation,Export,Export(US$ Mil),383216.324129
,2016,World,Miscellaneous,Export,Export(US$ Mil),453952.292307
,2016,World,Raw materials,Export,Export(US$ Mil),240234.476572
,2016,World,Intermediate goods,Export,Export(US$ Mil),878134.019034993
,2016,World,Consumer goods,Export,Export(US$ Mil),1405118.408859
,2016,World,Capital goods,Export,Export(US$ Mil),2137721.451339
,2016,World,Raw materials,Import,Import(US$ Mil),656164.677376001
,2016,World,Intermediate goods,Import,Import(US$ Mil),815748.74217799
,2016,World,Consumer goods,Import,Import(US$ Mil),897668.542816993
,2016,World,Capital goods,Import,Import(US$ Mil),1691909.307752
,2016,World,All Products,Export,Exports (in US$ Mil),4730659.214921
,2016,World,All Products,Import,Imports (in US$ Mil),4094201.996414
,2016,World,All Products,Tariff,Duty Free Imports (US$ Thousand),2769297357.898
,2016,...,...,Development,Trade Balance (current US$ Mil),503685.5172
,2016,...,...,Development,GDP (current US$ Mil),22477425.046
,2016,...,...,Tariff,No. Of Tariff Agreement,1205
,2016,...,...,Import,No. Of Import partners,235
,2016,...,...,Import,No. Of Import products,4838
,2016,...,...,Export,No. Of Export partners,235
,2016,...,...,Export,No. Of Export products,4721
,2016,...,...,Others,Population,2296786207
,2016,...,...,Others,CPIA Trade Ratings,4
,2016,United States,All Products,Export,Partner share(%)-Top 5 Export Partner,14.9418
,2016,China,All Products,Export,Partner share(%)-Top 5 Export Partner,14.6041
,2016,"Hong Kong, China",All Products,Export,Partner share(%)-Top 5 Export Partner,8.9132
,2016,Japan,All Products,Export,Partner share(%)-Top 5 Export Partner,5.4182
,2016,"Korea, Rep.",All Products,Export,Partner share(%)-Top 5 Export Partner,4.0389
,2016,China,All Products,Import,Partner share(%)-Top 5 Import Partner,16.5145
,2016,United States,All Products,Import,Partner share(%)-Top 5 Import Partner,8.7903
,2016,Japan,All Products,Import,Partner share(%)-Top 5 Import Partner,7.4334
,2016,"Other Asia, nes",All Products,Import,Partner share(%)-Top 5 Import Partner,6.675
,2016,"Korea, Rep.",All Products,Import,Partner share(%)-Top 5 Import Partner,6.4374
,2016,World,Animal,Export,Export Product share(%),1.2141
,2016,World,Vegetable,Export,Export Product share(%),1.9001
,2016,World,Food Products,Export,Export Product share(%),1.5753
,2016,World,Minerals,Export,Export Product share(%),1.3261
,2016,World,Fuels,Export,Export Product share(%),4.4537
,2016,World,Chemicals,Export,Export Product share(%),5.3429
,2016,World,Plastic or Rubber,Export,Export Product share(%),4.2122
,2016,World,Hides and Skins,Export,Export Product share(%),0.9174
,2016,World,Wood,Export,Export Product share(%),1.6351
,2016,World,Textiles and Clothing,Export,Export Product share(%),6.9521
,2016,World,Footwear,Export,Export Product share(%),1.501
,2016,World,Stone and Glass,Export,Export Product share(%),4.6319
,2016,World,Metals,Export,Export Product share(%),6.1262
,2016,World,Mach and Elec,Export,Export Product share(%),40.5154
,2016,World,Transportation,Export,Export Product share(%),8.1007
,2016,World,Miscellaneous,Export,Export Product share(%),9.596
,2016,World,Raw materials,Export,Export Product share(%),5.0782
,2016,World,Intermediate goods,Export,Export Product share(%),18.5626
,2016,World,Consumer goods,Export,Export Product share(%),29.7024
,2016,World,Capital goods,Export,Export Product share(%),45.1887
,2016,World,Raw materials,Import,Import Product share(%),16.0267
,2016,World,Intermediate goods,Import,Import Product share(%),19.9245
,2016,World,Consumer goods,Import,Import Product share(%),21.9254
,2016,World,Capital goods,Import,Import Product share(%),41.3245
,2016,World,Raw materials,Tariff,Weighted Average (%),3.95910563518685
,2016,World,Intermediate goods,Tariff,Weighted Average (%),2.68230306821447
,2016,World,Consumer goods,Tariff,Weighted Average (%),5.22203374132911
,2016,World,Capital goods,Tariff,Weighted Average (%),1.441637304924
,2016,World,All Products,Trade Indicator,World Growth (%),
,2016,World,All Products,Trade Indicator,Country Growth (%),
,2016,World,All Products,Tariff,Simple Average (%),4.9383225668643
,2016,World,All Products,Tariff,Weighted Average (%),2.94249938453614
,2016,World,All Products,Tariff,Maximum Rate (%),3000
,2016,World,All Products,Tariff,Duty Free Tariff Lines Share (%),47.8777712505578
,2016,...,...,Trade Indicator,Index of export market penetration,
,2016,...,...,Trade Indicator,HH Market concentration index,
,2016,...,...,Development,Trade in services (% of GDP),8.9004661873
,2016,...,...,Development,"GNI per capita, Atlas method (current US$)",9867.8460196
