Reporter,Year,Partner,Product categories,Indicator Type,Indicator,Indicator Value
France,2016,Germany,All Products,Export,Trade (US$ Mil)-Top 5 Export Partner,78851.32754
France,2016,Spain,All Products,Export,Trade (US$ Mil)-Top 5 Export Partner,36644.577952
France,2016,United States,All Products,Export,Trade (US$ Mil)-Top 5 Export Partner,36127.096199
France,2016,Italy,All Products,Export,Trade (US$ Mil)-Top 5 Export Partner,35717.802263
France,2016,United Kingdom,All Products,Export,Trade (US$ Mil)-Top 5 Export Partner,34445.925445
France,2016,Germany,All Products,Import,Trade (US$ Mil)-Top 5 Import Partner,94547.302117
France,2016,China,All Products,Import,Trade (US$ Mil)-Top 5 Import Partner,51032.597789
France,2016,Italy,All Products,Import,Trade (US$ Mil)-Top 5 Import Partner,42036.498071
France,2016,United States,All Products,Import,Trade (US$ Mil)-Top 5 Import Partner,39678.969318
France,2016,Belgium,All Products,Import,Trade (US$ Mil)-Top 5 Import Partner,38019.21205
France,2016,World,Animal,Export,Export(US$ Mil),13606.778391
France,2016,World,Vegetable,Export,Export(US$ Mil),16279.121426
France,2016,World,Food Products,Export,Export(US$ Mil),33132.343514
France,2016,World,Minerals,Export,Export(US$ Mil),1073.809494
France,2016,World,Fuels,Export,Export(US$ Mil),11284.670536
France,2016,World,Chemicals,Export,Export(US$ Mil),72792.69424
France,2016,World,Plastic or Rubber,Export,Export(US$ Mil),23816.614271
France,2016,World,Hides and Skins,Export,Export(US$ Mil),7591.247467
France,2016,World,Wood,Export,Export(US$ Mil),11066.429918
France,2016,World,Textiles and Clothing,Export,Export(US$ Mil),14955.863972
France,2016,World,Footwear,Export,Export(US$ Mil),3705.461935
France,2016,World,Stone and Glass,Export,Export(US$ Mil),12399.35775
France,2016,World,Metals,Export,Export(US$ Mil),29571.967234
France,2016,World,Mach and Elec,Export,Export(US$ Mil),95512.808492
France,2016,World,Transportation,Export,Export(US$ Mil),102599.984973
France,2016,World,Miscellaneous,Export,Export(US$ Mil),39495.918833
France,2016,World,Raw materials,Export,Export(US$ Mil),26503.267908
France,2016,World,Intermediate goods,Export,Export(US$ Mil),91118.3155159999
France,2016,World,Consumer goods,Export,Export(US$ Mil),179769.998799
France,2016,World,Capital goods,Export,Export(US$ Mil),179564.13272
France,2016,World,Raw materials,Import,Import(US$ Mil),47425.3266
France,2016,World,Intermediate goods,Import,Import(US$ Mil),124746.477525
France,2016,World,Consumer goods,Import,Import(US$ Mil),228492.699078001
France,2016,World,Capital goods,Import,Import(US$ Mil),159408.149847
France,2016,World,All Products,Export,Exports (in US$ Mil),488885.072443
France,2016,World,All Products,Import,Imports (in US$ Mil),560554.862702
France,2016,...,...,Development,Trade Balance (current US$ Mil),-42410.9626
France,2016,...,...,Development,GDP (current US$ Mil),2465453.9753
France,2016,...,...,Import,No. Of Import partners,233
France,2016,...,...,Import,No. Of Import products,4572
France,2016,...,...,Export,No. Of Export partners,229
France,2016,...,...,Export,No. Of Export products,4373
France,2016,...,...,Others,Population,66896109
France,2016,...,...,Others,Ease of Doing Business Rank,29
France,2016,...,...,Others,Trading Across Borders Rank,1
France,2014,...,...,Others,LPI Rank,13
France,2014,...,...,Others,LPI Score,3.847305
France,,...,...,Others,Services Trade Restrictions Index - Over All,26.4
France,2016,Germany,All Products,Export,Partner share(%)-Top 5 Export Partner,16.1288
France,2016,Spain,All Products,Export,Partner share(%)-Top 5 Export Partner,7.4955
France,2016,United States,All Products,Export,Partner share(%)-Top 5 Export Partner,7.3897
France,2016,Italy,All Products,Export,Partner share(%)-Top 5 Export Partner,7.306
France,2016,United Kingdom,All Products,Export,Partner share(%)-Top 5 Export Partner,7.0458
France,2016,Germany,All Products,Import,Partner share(%)-Top 5 Import Partner,16.8667
France,2016,China,All Products,Import,Partner share(%)-Top 5 Import Partner,9.1039
France,2016,Italy,All Products,Import,Partner share(%)-Top 5 Import Partner,7.4991
France,2016,United States,All Products,Import,Partner share(%)-Top 5 Import Partner,7.0785
France,2016,Belgium,All Products,Import,Partner share(%)-Top 5 Import Partner,6.7824
France,2016,World,Animal,Export,Export Product share(%),2.7832
France,2016,World,Vegetable,Export,Export Product share(%),3.3298
France,2016,World,Food Products,Export,Export Product share(%),6.7771
France,2016,World,Minerals,Export,Export Product share(%),0.2196
France,2016,World,Fuels,Export,Export Product share(%),2.3082
France,2016,World,Chemicals,Export,Export Product share(%),14.8895
France,2016,World,Plastic or Rubber,Export,Export Product share(%),4.8716
France,2016,World,Hides and Skins,Export,Export Product share(%),1.5528
France,2016,World,Wood,Export,Export Product share(%),2.2636
France,2016,World,Textiles and Clothing,Export,Export Product share(%),3.0592
France,2016,World,Footwear,Export,Export Product share(%),0.7579
France,2016,World,Stone and Glass,Export,Export Product share(%),2.5363
France,2016,World,Metals,Export,Export Product share(%),6.0489
France,2016,World,Mach and Elec,Export,Export Product share(%),19.5369
France,2016,World,Transportation,Export,Export Product share(%),20.9865
France,2016,World,Miscellaneous,Export,Export Product share(%),8.0788
France,2016,World,Raw materials,Export,Export Product share(%),5.4212
France,2016,World,Intermediate goods,Export,Export Product share(%),18.638
France,2016,World,Consumer goods,Export,Export Product share(%),36.7714
France,2016,World,Capital goods,Export,Export Product share(%),36.7293
France,2016,World,Raw materials,Import,Import Product share(%),8.4604
France,2016,World,Intermediate goods,Import,Import Product share(%),22.2541
France,2016,World,Consumer goods,Import,Import Product share(%),40.7619
France,2016,World,Capital goods,Import,Import Product share(%),28.4376
France,2016,World,All Products,Trade Indicator,World Growth (%),-4.42938104262537
France,2016,World,All Products,Trade Indicator,Country Growth (%),-2.81089160253231
France,2016,...,...,Trade Indicator,Index of export market penetration,29.5294240810291
France,2016,...,...,Trade Indicator,HH Market concentration index,0.0526923537267991
France,2016,...,...,Development,Trade Balance (% of GDP),-1.720209057
France,2016,...,...,Development,Trade in services (% of GDP),19.158756937
France,2016,...,...,Development,Trade (% of GDP),60.581499845
France,2016,...,...,Development,"GNI per capita, Atlas method (current US$)",38950
