Reporter,Year,Partner,Product categories,Indicator Type,Indicator,Indicator Value
,2016,Unspecified,All Products,Export,Trade (US$ Mil)-Top 5 Export Partner,205050.210333
,2016,"Other Asia, nes",All Products,Export,Trade (US$ Mil)-Top 5 Export Partner,45081.066538
,2016,United States,All Products,Export,Trade (US$ Mil)-Top 5 Export Partner,32262.937722
,2016,India,All Products,Export,Trade (US$ Mil)-Top 5 Export Partner,24925.176842
,2016,China,All Products,Export,Trade (US$ Mil)-Top 5 Export Partner,23939.112794
,2016,Unspecified,All Products,Import,Trade (US$ Mil)-Top 5 Import Partner,91348.807091
,2016,China,All Products,Import,Trade (US$ Mil)-Top 5 Import Partner,58698.557911
,2016,United States,All Products,Import,Trade (US$ Mil)-Top 5 Import Partner,45764.901483
,2016,Germany,All Products,Import,Trade (US$ Mil)-Top 5 Import Partner,33740.560249
,2016,India,All Products,Import,Trade (US$ Mil)-Top 5 Import Partner,27502.643206
,2016,World,Animal,Export,Export(US$ Mil),3808.044151
,2016,World,Vegetable,Export,Export(US$ Mil),10527.023274
,2016,World,Food Products,Export,Export(US$ Mil),9252.038571
,2016,World,Minerals,Export,Export(US$ Mil),4800.836758
,2016,World,Fuels,Export,Export(US$ Mil),192404.889226
,2016,World,Chemicals,Export,Export(US$ Mil),28623.373332
,2016,World,Plastic or Rubber,Export,Export(US$ Mil),11843.357393
,2016,World,Hides and Skins,Export,Export(US$ Mil),592.380005
,2016,World,Wood,Export,Export(US$ Mil),3595.842713
,2016,World,Textiles and Clothing,Export,Export(US$ Mil),14761.845788
,2016,World,Footwear,Export,Export(US$ Mil),1269.370116
,2016,World,Stone and Glass,Export,Export(US$ Mil),65128.475938
,2016,World,Metals,Export,Export(US$ Mil),18933.662558
,2016,World,Mach and Elec,Export,Export(US$ Mil),40980.943392
,2016,World,Transportation,Export,Export(US$ Mil),18971.438043
,2016,World,Miscellaneous,Export,Export(US$ Mil),172640.286424
,2016,World,Raw materials,Export,Export(US$ Mil),141081.748758
,2016,World,Intermediate goods,Export,Export(US$ Mil),90897.6750479999
,2016,World,Consumer goods,Export,Export(US$ Mil),159154.452859001
,2016,World,Capital goods,Export,Export(US$ Mil),43323.3365029999
,2016,World,Raw materials,Import,Import(US$ Mil),56737.9707890001
,2016,World,Intermediate goods,Import,Import(US$ Mil),147846.593946001
,2016,World,Consumer goods,Import,Import(US$ Mil),166237.758037
,2016,World,Capital goods,Import,Import(US$ Mil),141687.151195001
,2016,World,All Products,Export,Exports (in US$ Mil),598133.80766
,2016,World,All Products,Import,Imports (in US$ Mil),599469.031114
,2016,World,All Products,Tariff,Duty Free Imports (US$ Thousand),285250858.359
,2016,...,...,Development,Trade Balance (current US$ Mil),-90744.1398
,2016,...,...,Development,GDP (current US$ Mil),3111499.1378
,2016,...,...,Tariff,No. Of Tariff Agreement,607
,2016,...,...,Import,No. Of Import partners,230
,2016,...,...,Import,No. Of Import products,4575
,2016,...,...,Export,No. Of Export partners,221
,2016,...,...,Export,No. Of Export products,4485
,2016,...,...,Others,Population,436720722
,2016,...,...,Others,CPIA Trade Ratings,3.5
,2016,Unspecified,All Products,Export,Partner share(%)-Top 5 Export Partner,34.2817
,2016,"Other Asia, nes",All Products,Export,Partner share(%)-Top 5 Export Partner,7.537
,2016,United States,All Products,Export,Partner share(%)-Top 5 Export Partner,5.3939
,2016,India,All Products,Export,Partner share(%)-Top 5 Export Partner,4.1672
,2016,China,All Products,Export,Partner share(%)-Top 5 Export Partner,4.0023
,2016,Unspecified,All Products,Import,Partner share(%)-Top 5 Import Partner,15.2383
,2016,China,All Products,Import,Partner share(%)-Top 5 Import Partner,9.7918
,2016,United States,All Products,Import,Partner share(%)-Top 5 Import Partner,7.6342
,2016,Germany,All Products,Import,Partner share(%)-Top 5 Import Partner,5.6284
,2016,India,All Products,Import,Partner share(%)-Top 5 Import Partner,4.5878
,2016,World,Animal,Export,Export Product share(%),0.6367
,2016,World,Vegetable,Export,Export Product share(%),1.76
,2016,World,Food Products,Export,Export Product share(%),1.5468
,2016,World,Minerals,Export,Export Product share(%),0.8026
,2016,World,Fuels,Export,Export Product share(%),32.1675
,2016,World,Chemicals,Export,Export Product share(%),4.7854
,2016,World,Plastic or Rubber,Export,Export Product share(%),1.9801
,2016,World,Hides and Skins,Export,Export Product share(%),0.099
,2016,World,Wood,Export,Export Product share(%),0.6012
,2016,World,Textiles and Clothing,Export,Export Product share(%),2.468
,2016,World,Footwear,Export,Export Product share(%),0.2122
,2016,World,Stone and Glass,Export,Export Product share(%),10.8886
,2016,World,Metals,Export,Export Product share(%),3.1655
,2016,World,Mach and Elec,Export,Export Product share(%),6.8515
,2016,World,Transportation,Export,Export Product share(%),3.1718
,2016,World,Miscellaneous,Export,Export Product share(%),28.8632
,2016,World,Raw materials,Export,Export Product share(%),23.587
,2016,World,Intermediate goods,Export,Export Product share(%),15.1969
,2016,World,Consumer goods,Export,Export Product share(%),26.6085
,2016,World,Capital goods,Export,Export Product share(%),7.2431
,2016,World,Raw materials,Import,Import Product share(%),9.4647
,2016,World,Intermediate goods,Import,Import Product share(%),24.6629
,2016,World,Consumer goods,Import,Import Product share(%),27.7308
,2016,World,Capital goods,Import,Import Product share(%),23.6354
,2016,World,Raw materials,Tariff,Weighted Average (%),3.19837357486409
,2016,World,Intermediate goods,Tariff,Weighted Average (%),2.76461293802822
,2016,World,Consumer goods,Tariff,Weighted Average (%),5.85396497210757
,2016,World,Capital goods,Tariff,Weighted Average (%),3.15769239387667
,2016,World,All Products,Trade Indicator,World Growth (%),
,2016,World,All Products,Trade Indicator,Country Growth (%),
,2016,World,All Products,Tariff,Simple Average (%),5.34978182809018
,2016,World,All Products,Tariff,Weighted Average (%),4.08061081288877
,2016,World,All Products,Tariff,Maximum Rate (%),3000
,2016,World,All Products,Tariff,Duty Free Tariff Lines Share (%),42.131242507382
,2016,...,...,Trade Indicator,Index of export market penetration,
,2016,...,...,Trade Indicator,HH Market concentration index,
,2016,...,...,Development,Trade Balance (% of GDP),-2.977895544
,2016,...,...,Development,Trade (% of GDP),85.023676518
,2016,...,...,Development,"GNI per capita, Atlas method (current US$)",7799.6189917
