Reporter,Year,Partner,Product categories,Indicator Type,Indicator,Indicator Value
Madagascar,2016,France,All Products,Export,Trade (US$ Mil)-Top 5 Export Partner,537.657135
Madagascar,2016,United States,All Products,Export,Trade (US$ Mil)-Top 5 Export Partner,292.363788
Madagascar,2016,Germany,All Products,Export,Trade (US$ Mil)-Top 5 Export Partner,189.598687
Madagascar,2016,China,All Products,Export,Trade (US$ Mil)-Top 5 Export Partner,144.092832
Madagascar,2016,Japan,All Products,Export,Trade (US$ Mil)-Top 5 Export Partner,115.055942
Madagascar,2016,China,All Products,Import,Trade (US$ Mil)-Top 5 Import Partner,632.082953
Madagascar,2016,France,All Products,Import,Trade (US$ Mil)-Top 5 Import Partner,205.399699
Madagascar,2016,India,All Products,Import,Trade (US$ Mil)-Top 5 Import Partner,193.436847
Madagascar,2016,United Arab Emirates,All Products,Import,Trade (US$ Mil)-Top 5 Import Partner,167.036741
Madagascar,2016,Unspecified,All Products,Import,Trade (US$ Mil)-Top 5 Import Partner,154.14965
Madagascar,2016,World,Animal,Export,Export(US$ Mil),111.333139
Madagascar,2016,World,Vegetable,Export,Export(US$ Mil),680.820994
Madagascar,2016,World,Food Products,Export,Export(US$ Mil),93.791565
Madagascar,2016,World,Minerals,Export,Export(US$ Mil),82.013287
Madagascar,2016,World,Fuels,Export,Export(US$ Mil),55.583492
Madagascar,2016,World,Chemicals,Export,Export(US$ Mil),58.731291
Madagascar,2016,World,Plastic or Rubber,Export,Export(US$ Mil),4.593403
Madagascar,2016,World,Hides and Skins,Export,Export(US$ Mil),9.184898
Madagascar,2016,World,Wood,Export,Export(US$ Mil),26.464695
Madagascar,2016,World,Textiles and Clothing,Export,Export(US$ Mil),525.823053
Madagascar,2016,World,Footwear,Export,Export(US$ Mil),2.612642
Madagascar,2016,World,Stone and Glass,Export,Export(US$ Mil),40.720583
Madagascar,2016,World,Metals,Export,Export(US$ Mil),487.942697
Madagascar,2016,World,Mach and Elec,Export,Export(US$ Mil),27.376023
Madagascar,2016,World,Transportation,Export,Export(US$ Mil),6.066276
Madagascar,2016,World,Miscellaneous,Export,Export(US$ Mil),43.346494
Madagascar,2016,World,Raw materials,Export,Export(US$ Mil),363.162039
Madagascar,2016,World,Intermediate goods,Export,Export(US$ Mil),603.96503
Madagascar,2016,World,Consumer goods,Export,Export(US$ Mil),1235.508063
Madagascar,2016,World,Capital goods,Export,Export(US$ Mil),34.297759
Madagascar,2016,World,Raw materials,Import,Import(US$ Mil),168.820794
Madagascar,2016,World,Intermediate goods,Import,Import(US$ Mil),976.282883000001
Madagascar,2016,World,Consumer goods,Import,Import(US$ Mil),1311.788142
Madagascar,2016,World,Capital goods,Import,Import(US$ Mil),481.622309
Madagascar,2016,World,All Products,Export,Exports (in US$ Mil),2256.40453
Madagascar,2016,World,All Products,Import,Imports (in US$ Mil),2965.336452
Madagascar,2015,World,All Products,Tariff,Duty Free Imports (US$ Thousand),490660.23
Madagascar,2016,...,...,Development,Trade Balance (current US$ Mil),-309.7102454
Madagascar,2016,...,...,Development,GDP (current US$ Mil),9990.6530782
Madagascar,2015,...,...,Tariff,No. Of Tariff Agreement,2
Madagascar,2016,...,...,Import,No. Of Import partners,159
Madagascar,2016,...,...,Import,No. Of Import products,3733
Madagascar,2016,...,...,Export,No. Of Export partners,133
Madagascar,2016,...,...,Export,No. Of Export products,1963
Madagascar,2016,...,...,Others,Population,24894551
Madagascar,2016,...,...,Others,Ease of Doing Business Rank,167
Madagascar,2016,...,...,Others,Trading Across Borders Rank,129
Madagascar,2016,...,...,Others,CPIA Trade Ratings,4
Madagascar,2014,...,...,Others,LPI Rank,132
Madagascar,2014,...,...,Others,LPI Score,2.382349
Madagascar,,...,...,Others,Services Trade Restrictions Index - Over All,18.7
Madagascar,2016,France,All Products,Export,Partner share(%)-Top 5 Export Partner,23.828
Madagascar,2016,United States,All Products,Export,Partner share(%)-Top 5 Export Partner,12.9571
Madagascar,2016,Germany,All Products,Export,Partner share(%)-Top 5 Export Partner,8.4027
Madagascar,2016,China,All Products,Export,Partner share(%)-Top 5 Export Partner,6.3859
Madagascar,2016,Japan,All Products,Export,Partner share(%)-Top 5 Export Partner,5.0991
Madagascar,2016,China,All Products,Import,Partner share(%)-Top 5 Import Partner,21.3157
Madagascar,2016,France,All Products,Import,Partner share(%)-Top 5 Import Partner,6.9267
Madagascar,2016,India,All Products,Import,Partner share(%)-Top 5 Import Partner,6.5233
Madagascar,2016,United Arab Emirates,All Products,Import,Partner share(%)-Top 5 Import Partner,5.633
Madagascar,2016,Unspecified,All Products,Import,Partner share(%)-Top 5 Import Partner,5.1984
Madagascar,2016,World,Animal,Export,Export Product share(%),4.9341
Madagascar,2016,World,Vegetable,Export,Export Product share(%),30.1728
Madagascar,2016,World,Food Products,Export,Export Product share(%),4.1567
Madagascar,2016,World,Minerals,Export,Export Product share(%),3.6347
Madagascar,2016,World,Fuels,Export,Export Product share(%),2.4634
Madagascar,2016,World,Chemicals,Export,Export Product share(%),2.6029
Madagascar,2016,World,Plastic or Rubber,Export,Export Product share(%),0.2036
Madagascar,2016,World,Hides and Skins,Export,Export Product share(%),0.4071
Madagascar,2016,World,Wood,Export,Export Product share(%),1.1729
Madagascar,2016,World,Textiles and Clothing,Export,Export Product share(%),23.3036
Madagascar,2016,World,Footwear,Export,Export Product share(%),0.1158
Madagascar,2016,World,Stone and Glass,Export,Export Product share(%),1.8047
Madagascar,2016,World,Metals,Export,Export Product share(%),21.6248
Madagascar,2016,World,Mach and Elec,Export,Export Product share(%),1.2133
Madagascar,2016,World,Transportation,Export,Export Product share(%),0.2688
Madagascar,2016,World,Miscellaneous,Export,Export Product share(%),1.921
Madagascar,2016,World,Raw materials,Export,Export Product share(%),16.0947
Madagascar,2016,World,Intermediate goods,Export,Export Product share(%),26.7667
Madagascar,2016,World,Consumer goods,Export,Export Product share(%),54.7556
Madagascar,2016,World,Capital goods,Export,Export Product share(%),1.52
Madagascar,2016,World,Raw materials,Import,Import Product share(%),5.6931
Madagascar,2016,World,Intermediate goods,Import,Import Product share(%),32.9232
Madagascar,2016,World,Consumer goods,Import,Import Product share(%),44.2374
Madagascar,2016,World,Capital goods,Import,Import Product share(%),16.2417
Madagascar,2015,World,Raw materials,Tariff,Weighted Average (%),7.64891923101655
Madagascar,2015,World,Intermediate goods,Tariff,Weighted Average (%),9.88403963746295
Madagascar,2015,World,Consumer goods,Tariff,Weighted Average (%),10.7970697671016
Madagascar,2015,World,Capital goods,Tariff,Weighted Average (%),5.65236177891594
Madagascar,2016,World,All Products,Trade Indicator,World Growth (%),-4.42938104262537
Madagascar,2016,World,All Products,Trade Indicator,Country Growth (%),4.1209081346725
Madagascar,2015,World,All Products,Tariff,Simple Average (%),10.9369798920355
Madagascar,2015,World,All Products,Tariff,Weighted Average (%),9.35410973805688
Madagascar,2015,World,All Products,Tariff,Maximum Rate (%),20
Madagascar,2015,World,All Products,Tariff,Duty Free Tariff Lines Share (%),15.147285329226
Madagascar,2016,...,...,Trade Indicator,Index of export market penetration,2.8676793552438
Madagascar,2016,...,...,Trade Indicator,HH Market concentration index,0.0807315529149354
Madagascar,2016,...,...,Development,Trade Balance (% of GDP),-3.1
Madagascar,2016,...,...,Development,Trade (% of GDP),68.1
Madagascar,2016,...,...,Development,"GNI per capita, Atlas method (current US$)",400
