Reporter,Year,Partner,Product categories,Indicator Type,Indicator,Indicator Value
Mali,2016,South Africa,All Products,Export,Trade (US$ Mil)-Top 5 Export Partner,1337.309015
Mali,2016,Switzerland,All Products,Export,Trade (US$ Mil)-Top 5 Export Partner,428.188991
Mali,2016,United Arab Emirates,All Products,Export,Trade (US$ Mil)-Top 5 Export Partner,216.756178
Mali,2016,Cote d'Ivoire,All Products,Export,Trade (US$ Mil)-Top 5 Export Partner,170.285912
Mali,2016,Burkina Faso,All Products,Export,Trade (US$ Mil)-Top 5 Export Partner,109.886948
Mali,2016,Senegal,All Products,Import,Trade (US$ Mil)-Top 5 Import Partner,746.547981
Mali,2016,China,All Products,Import,Trade (US$ Mil)-Top 5 Import Partner,600.556776
Mali,2016,Cote d'Ivoire,All Products,Import,Trade (US$ Mil)-Top 5 Import Partner,378.048023
Mali,2016,France,All Products,Import,Trade (US$ Mil)-Top 5 Import Partner,331.523287
Mali,2016,Germany,All Products,Import,Trade (US$ Mil)-Top 5 Import Partner,169.604465
Mali,2016,World,Animal,Export,Export(US$ Mil),232.74254
Mali,2016,World,Vegetable,Export,Export(US$ Mil),32.871025
Mali,2016,World,Food Products,Export,Export(US$ Mil),15.98657
Mali,2016,World,Minerals,Export,Export(US$ Mil),0.197674
Mali,2016,World,Fuels,Export,Export(US$ Mil),8.312229
Mali,2016,World,Chemicals,Export,Export(US$ Mil),110.420744
Mali,2016,World,Plastic or Rubber,Export,Export(US$ Mil),8.722193
Mali,2016,World,Hides and Skins,Export,Export(US$ Mil),4.939704
Mali,2016,World,Wood,Export,Export(US$ Mil),8.374094
Mali,2016,World,Textiles and Clothing,Export,Export(US$ Mil),268.382141
Mali,2016,World,Footwear,Export,Export(US$ Mil),2.086388
Mali,2016,World,Stone and Glass,Export,Export(US$ Mil),2043.320967
Mali,2016,World,Metals,Export,Export(US$ Mil),12.950815
Mali,2016,World,Mach and Elec,Export,Export(US$ Mil),44.395041
Mali,2016,World,Transportation,Export,Export(US$ Mil),48.045171
Mali,2016,World,Miscellaneous,Export,Export(US$ Mil),5.846265
Mali,2016,World,Raw materials,Export,Export(US$ Mil),172.774208
Mali,2016,World,Intermediate goods,Export,Export(US$ Mil),2436.191319
Mali,2016,World,Consumer goods,Export,Export(US$ Mil),55.428683
Mali,2016,World,Capital goods,Export,Export(US$ Mil),183.199359
Mali,2016,World,Raw materials,Import,Import(US$ Mil),187.349622
Mali,2016,World,Intermediate goods,Import,Import(US$ Mil),895.768646
Mali,2016,World,Consumer goods,Import,Import(US$ Mil),1902.381626
Mali,2016,World,Capital goods,Import,Import(US$ Mil),859.904879000001
Mali,2016,World,All Products,Export,Exports (in US$ Mil),2847.593565
Mali,2016,World,All Products,Import,Imports (in US$ Mil),3845.404761
Mali,2016,World,All Products,Tariff,Duty Free Imports (US$ Thousand),833043.588
Mali,2016,...,...,Development,Trade Balance (current US$ Mil),-930.1467245
Mali,2016,...,...,Development,GDP (current US$ Mil),14045.098238
Mali,2016,...,...,Tariff,No. Of Tariff Agreement,2
Mali,2016,...,...,Import,No. Of Import partners,148
Mali,2016,...,...,Import,No. Of Import products,3017
Mali,2016,...,...,Export,No. Of Export partners,90
Mali,2016,...,...,Export,No. Of Export products,942
Mali,2016,...,...,Others,Population,17994837
Mali,2016,...,...,Others,Ease of Doing Business Rank,141
Mali,2016,...,...,Others,Trading Across Borders Rank,89
Mali,2016,...,...,Others,CPIA Trade Ratings,4
Mali,2014,...,...,Others,LPI Rank,119
Mali,2014,...,...,Others,LPI Score,2.495227
Mali,2014,...,...,Others,No Of NTM Affected Products (HS 6 Digit),5052
Mali,2014,...,...,Others,No Of NTM Measures,52
Mali,2009,...,...,Others,Overall Trade Restrictiveness Index -  Applied Tariff,0.1273263
Mali,2009,...,...,Others,Overall Trade Restrictiveness Index - MFN Tariff,0.145132
Mali,,...,...,Others,Services Trade Restrictions Index - Over All,28.6
Mali,2016,South Africa,All Products,Export,Partner share(%)-Top 5 Export Partner,46.9628
Mali,2016,Switzerland,All Products,Export,Partner share(%)-Top 5 Export Partner,15.0369
Mali,2016,United Arab Emirates,All Products,Export,Partner share(%)-Top 5 Export Partner,7.6119
Mali,2016,Cote d'Ivoire,All Products,Export,Partner share(%)-Top 5 Export Partner,5.98
Mali,2016,Burkina Faso,All Products,Export,Partner share(%)-Top 5 Export Partner,3.8589
Mali,2016,Senegal,All Products,Import,Partner share(%)-Top 5 Import Partner,19.414
Mali,2016,China,All Products,Import,Partner share(%)-Top 5 Import Partner,15.6175
Mali,2016,Cote d'Ivoire,All Products,Import,Partner share(%)-Top 5 Import Partner,9.8312
Mali,2016,France,All Products,Import,Partner share(%)-Top 5 Import Partner,8.6213
Mali,2016,Germany,All Products,Import,Partner share(%)-Top 5 Import Partner,4.4106
Mali,2016,World,Animal,Export,Export Product share(%),8.1733
Mali,2016,World,Vegetable,Export,Export Product share(%),1.1543
Mali,2016,World,Food Products,Export,Export Product share(%),0.5614
Mali,2016,World,Minerals,Export,Export Product share(%),0.0069
Mali,2016,World,Fuels,Export,Export Product share(%),0.2919
Mali,2016,World,Chemicals,Export,Export Product share(%),3.8777
Mali,2016,World,Plastic or Rubber,Export,Export Product share(%),0.3063
Mali,2016,World,Hides and Skins,Export,Export Product share(%),0.1735
Mali,2016,World,Wood,Export,Export Product share(%),0.2941
Mali,2016,World,Textiles and Clothing,Export,Export Product share(%),9.4249
Mali,2016,World,Footwear,Export,Export Product share(%),0.0733
Mali,2016,World,Stone and Glass,Export,Export Product share(%),71.7561
Mali,2016,World,Metals,Export,Export Product share(%),0.4548
Mali,2016,World,Mach and Elec,Export,Export Product share(%),1.559
Mali,2016,World,Transportation,Export,Export Product share(%),1.6872
Mali,2016,World,Miscellaneous,Export,Export Product share(%),0.2053
Mali,2016,World,Raw materials,Export,Export Product share(%),6.0674
Mali,2016,World,Intermediate goods,Export,Export Product share(%),85.5526
Mali,2016,World,Consumer goods,Export,Export Product share(%),1.9465
Mali,2016,World,Capital goods,Export,Export Product share(%),6.4335
Mali,2016,World,Raw materials,Import,Import Product share(%),4.872
Mali,2016,World,Intermediate goods,Import,Import Product share(%),23.2945
Mali,2016,World,Consumer goods,Import,Import Product share(%),49.4716
Mali,2016,World,Capital goods,Import,Import Product share(%),22.3619
Mali,2016,World,Raw materials,Tariff,Weighted Average (%),11.9300562209213
Mali,2016,World,Intermediate goods,Tariff,Weighted Average (%),5.55922781565222
Mali,2016,World,Consumer goods,Tariff,Weighted Average (%),8.62689888123656
Mali,2016,World,Capital goods,Tariff,Weighted Average (%),7.91964136215935
Mali,2016,World,All Products,Trade Indicator,World Growth (%),-4.42938104262537
Mali,2016,World,All Products,Trade Indicator,Country Growth (%),-16.2724953534229
Mali,2016,World,All Products,Tariff,Simple Average (%),12.242836168404
Mali,2016,World,All Products,Tariff,Weighted Average (%),7.61699372094643
Mali,2016,World,All Products,Tariff,Maximum Rate (%),35
Mali,2016,World,All Products,Tariff,Duty Free Tariff Lines Share (%),8.47358949931195
Mali,2016,...,...,Trade Indicator,Index of export market penetration,1.53737024707485
Mali,2016,...,...,Trade Indicator,HH Market concentration index,0.419344661312694
Mali,2016,...,...,Development,Trade Balance (% of GDP),-6.622571866
Mali,2016,...,...,Development,Trade (% of GDP),47.468396003
Mali,2016,...,...,Development,"GNI per capita, Atlas method (current US$)",750
