Reporter,Year,Partner,Product categories,Indicator Type,Indicator,Indicator Value
Pakistan,2016,United States,All Products,Export,Trade (US$ Mil)-Top 5 Export Partner,3429.743344
Pakistan,2016,China,All Products,Export,Trade (US$ Mil)-Top 5 Export Partner,1590.858058
Pakistan,2016,United Kingdom,All Products,Export,Trade (US$ Mil)-Top 5 Export Partner,1557.630409
Pakistan,2016,Afghanistan,All Products,Export,Trade (US$ Mil)-Top 5 Export Partner,1369.768441
Pakistan,2016,Germany,All Products,Export,Trade (US$ Mil)-Top 5 Export Partner,1186.247112
Pakistan,2016,China,All Products,Import,Trade (US$ Mil)-Top 5 Import Partner,13680.153113
Pakistan,2016,United Arab Emirates,All Products,Import,Trade (US$ Mil)-Top 5 Import Partner,6202.089915
Pakistan,2016,Indonesia,All Products,Import,Trade (US$ Mil)-Top 5 Import Partner,2088.830587
Pakistan,2016,United States,All Products,Import,Trade (US$ Mil)-Top 5 Import Partner,2006.823022
Pakistan,2016,Japan,All Products,Import,Trade (US$ Mil)-Top 5 Import Partner,1961.395062
Pakistan,2016,World,Animal,Export,Export(US$ Mil),671.221471
Pakistan,2016,World,Vegetable,Export,Export(US$ Mil),2767.101131
Pakistan,2016,World,Food Products,Export,Export(US$ Mil),681.2238
Pakistan,2016,World,Minerals,Export,Export(US$ Mil),538.642891
Pakistan,2016,World,Fuels,Export,Export(US$ Mil),155.099651
Pakistan,2016,World,Chemicals,Export,Export(US$ Mil),346.715181
Pakistan,2016,World,Plastic or Rubber,Export,Export(US$ Mil),287.496315
Pakistan,2016,World,Hides and Skins,Export,Export(US$ Mil),994.340053
Pakistan,2016,World,Wood,Export,Export(US$ Mil),150.985238
Pakistan,2016,World,Textiles and Clothing,Export,Export(US$ Mil),12407.211796
Pakistan,2016,World,Footwear,Export,Export(US$ Mil),111.152246
Pakistan,2016,World,Stone and Glass,Export,Export(US$ Mil),59.020259
Pakistan,2016,World,Metals,Export,Export(US$ Mil),341.276444
Pakistan,2016,World,Mach and Elec,Export,Export(US$ Mil),257.450682
Pakistan,2016,World,Transportation,Export,Export(US$ Mil),51.928394
Pakistan,2016,World,Miscellaneous,Export,Export(US$ Mil),712.927283
Pakistan,2016,World,Raw materials,Export,Export(US$ Mil),1868.283492
Pakistan,2016,World,Intermediate goods,Export,Export(US$ Mil),5593.07465700001
Pakistan,2016,World,Consumer goods,Export,Export(US$ Mil),12423.281902
Pakistan,2016,World,Capital goods,Export,Export(US$ Mil),648.338442
Pakistan,2016,World,Raw materials,Import,Import(US$ Mil),6447.328404
Pakistan,2016,World,Intermediate goods,Import,Import(US$ Mil),14019.052708
Pakistan,2016,World,Consumer goods,Import,Import(US$ Mil),14602.210685
Pakistan,2016,World,Capital goods,Import,Import(US$ Mil),11847.472661
Pakistan,2016,World,All Products,Export,Exports (in US$ Mil),20533.792833
Pakistan,2016,World,All Products,Import,Imports (in US$ Mil),46998.269105
Pakistan,2016,World,All Products,Tariff,Duty Free Imports (US$ Thousand),4587666.176
Pakistan,2016,...,...,Development,Trade Balance (current US$ Mil),-20215.961028
Pakistan,2016,...,...,Development,GDP (current US$ Mil),283659.9807
Pakistan,2016,...,...,Tariff,No. Of Tariff Agreement,8
Pakistan,2016,...,...,Import,No. Of Import partners,219
Pakistan,2016,...,...,Import,No. Of Import products,4155
Pakistan,2016,...,...,Export,No. Of Export partners,195
Pakistan,2016,...,...,Export,No. Of Export products,2790
Pakistan,2016,...,...,Others,Population,193203476
Pakistan,2016,...,...,Others,Ease of Doing Business Rank,144
Pakistan,2016,...,...,Others,Trading Across Borders Rank,172
Pakistan,2016,...,...,Others,CPIA Trade Ratings,3.5
Pakistan,2014,...,...,Others,LPI Rank,72
Pakistan,2014,...,...,Others,LPI Score,2.825426
Pakistan,2013,...,...,Others,No Of NTM Affected Products (HS 6 Digit),28
Pakistan,2013,...,...,Others,No Of NTM Measures,2
Pakistan,2009,...,...,Others,Overall Trade Restrictiveness Index -  Applied Tariff,0.0736763
Pakistan,2009,...,...,Others,Overall Trade Restrictiveness Index - MFN Tariff,0.0736763
Pakistan,,...,...,Others,Services Trade Restrictions Index - Over All,28.3
Pakistan,2013,...,...,Others,Temporary Trade Barriers in Effect - Simple Average,0.290585041
Pakistan,2013,...,...,Others,Temporary Trade Barriers in Effect - Weighted Average,1.306389093
Pakistan,2016,United States,All Products,Export,Partner share(%)-Top 5 Export Partner,16.7029
Pakistan,2016,China,All Products,Export,Partner share(%)-Top 5 Export Partner,7.7475
Pakistan,2016,United Kingdom,All Products,Export,Partner share(%)-Top 5 Export Partner,7.5857
Pakistan,2016,Afghanistan,All Products,Export,Partner share(%)-Top 5 Export Partner,6.6708
Pakistan,2016,Germany,All Products,Export,Partner share(%)-Top 5 Export Partner,5.777
Pakistan,2016,China,All Products,Import,Partner share(%)-Top 5 Import Partner,29.1078
Pakistan,2016,United Arab Emirates,All Products,Import,Partner share(%)-Top 5 Import Partner,13.1964
Pakistan,2016,Indonesia,All Products,Import,Partner share(%)-Top 5 Import Partner,4.4445
Pakistan,2016,United States,All Products,Import,Partner share(%)-Top 5 Import Partner,4.27
Pakistan,2016,Japan,All Products,Import,Partner share(%)-Top 5 Import Partner,4.1733
Pakistan,2016,World,Animal,Export,Export Product share(%),3.2689
Pakistan,2016,World,Vegetable,Export,Export Product share(%),13.4758
Pakistan,2016,World,Food Products,Export,Export Product share(%),3.3176
Pakistan,2016,World,Minerals,Export,Export Product share(%),2.6232
Pakistan,2016,World,Fuels,Export,Export Product share(%),0.7553
Pakistan,2016,World,Chemicals,Export,Export Product share(%),1.6885
Pakistan,2016,World,Plastic or Rubber,Export,Export Product share(%),1.4001
Pakistan,2016,World,Hides and Skins,Export,Export Product share(%),4.8425
Pakistan,2016,World,Wood,Export,Export Product share(%),0.7353
Pakistan,2016,World,Textiles and Clothing,Export,Export Product share(%),60.4234
Pakistan,2016,World,Footwear,Export,Export Product share(%),0.5413
Pakistan,2016,World,Stone and Glass,Export,Export Product share(%),0.2874
Pakistan,2016,World,Metals,Export,Export Product share(%),1.662
Pakistan,2016,World,Mach and Elec,Export,Export Product share(%),1.2538
Pakistan,2016,World,Transportation,Export,Export Product share(%),0.2529
Pakistan,2016,World,Miscellaneous,Export,Export Product share(%),3.472
Pakistan,2016,World,Raw materials,Export,Export Product share(%),9.0986
Pakistan,2016,World,Intermediate goods,Export,Export Product share(%),27.2384
Pakistan,2016,World,Consumer goods,Export,Export Product share(%),60.5016
Pakistan,2016,World,Capital goods,Export,Export Product share(%),3.1574
Pakistan,2016,World,Raw materials,Import,Import Product share(%),13.7182
Pakistan,2016,World,Intermediate goods,Import,Import Product share(%),29.8289
Pakistan,2016,World,Consumer goods,Import,Import Product share(%),31.0697
Pakistan,2016,World,Capital goods,Import,Import Product share(%),25.2083
Pakistan,2016,World,Raw materials,Tariff,Weighted Average (%),5.62129143350475
Pakistan,2016,World,Intermediate goods,Tariff,Weighted Average (%),7.8262127714618
Pakistan,2016,World,Consumer goods,Tariff,Weighted Average (%),16.0126121832731
Pakistan,2016,World,Capital goods,Tariff,Weighted Average (%),9.37350353676256
Pakistan,2016,World,All Products,Trade Indicator,World Growth (%),-4.42938104262537
Pakistan,2016,World,All Products,Trade Indicator,Country Growth (%),-8.07748846058365
Pakistan,2016,World,All Products,Tariff,Simple Average (%),12.5500767712503
Pakistan,2016,World,All Products,Tariff,Weighted Average (%),10.094189842896
Pakistan,2016,World,All Products,Tariff,Maximum Rate (%),1815.98303222656
Pakistan,2016,World,All Products,Tariff,Duty Free Tariff Lines Share (%),3.10902851929795
Pakistan,2016,...,...,Trade Indicator,Index of export market penetration,6.83156358512405
Pakistan,2016,...,...,Trade Indicator,HH Market concentration index,0.0588256704474009
Pakistan,2016,...,...,Development,Trade Balance (% of GDP),-7.1268287403
Pakistan,2016,...,...,Development,Trade (% of GDP),24.515870296
Pakistan,2016,...,...,Development,"GNI per capita, Atlas method (current US$)",1510
