Reporter,Year,Partner,Product categories,Indicator Type,Indicator,Indicator Value
Romania,2016,Germany,All Products,Export,Trade (US$ Mil)-Top 5 Export Partner,13675.875028
Romania,2016,Italy,All Products,Export,Trade (US$ Mil)-Top 5 Export Partner,7373.688062
Romania,2016,France,All Products,Export,Trade (US$ Mil)-Top 5 Export Partner,4589.081298
Romania,2016,Hungary,All Products,Export,Trade (US$ Mil)-Top 5 Export Partner,3295.009197
Romania,2016,United Kingdom,All Products,Export,Trade (US$ Mil)-Top 5 Export Partner,2754.668089
Romania,2016,Germany,All Products,Import,Trade (US$ Mil)-Top 5 Import Partner,15291.038281
Romania,2016,Italy,All Products,Import,Trade (US$ Mil)-Top 5 Import Partner,7650.968215
Romania,2016,Hungary,All Products,Import,Trade (US$ Mil)-Top 5 Import Partner,5601.779269
Romania,2016,France,All Products,Import,Trade (US$ Mil)-Top 5 Import Partner,4135.602002
Romania,2016,Poland,All Products,Import,Trade (US$ Mil)-Top 5 Import Partner,3833.351261
Romania,2016,World,Animal,Export,Export(US$ Mil),849.273183
Romania,2016,World,Vegetable,Export,Export(US$ Mil),3906.556774
Romania,2016,World,Food Products,Export,Export(US$ Mil),1835.846877
Romania,2016,World,Minerals,Export,Export(US$ Mil),83.701342
Romania,2016,World,Fuels,Export,Export(US$ Mil),2288.995748
Romania,2016,World,Chemicals,Export,Export(US$ Mil),1924.065592
Romania,2016,World,Plastic or Rubber,Export,Export(US$ Mil),3527.822598
Romania,2016,World,Hides and Skins,Export,Export(US$ Mil),402.209951
Romania,2016,World,Wood,Export,Export(US$ Mil),2226.574205
Romania,2016,World,Textiles and Clothing,Export,Export(US$ Mil),4316.379609
Romania,2016,World,Footwear,Export,Export(US$ Mil),1427.569272
Romania,2016,World,Stone and Glass,Export,Export(US$ Mil),361.141544
Romania,2016,World,Metals,Export,Export(US$ Mil),4827.812316
Romania,2016,World,Mach and Elec,Export,Export(US$ Mil),18373.760132
Romania,2016,World,Transportation,Export,Export(US$ Mil),11034.33914
Romania,2016,World,Miscellaneous,Export,Export(US$ Mil),6194.956062
Romania,2016,World,Raw materials,Export,Export(US$ Mil),4957.53017099999
Romania,2016,World,Intermediate goods,Export,Export(US$ Mil),9604.57639199999
Romania,2016,World,Consumer goods,Export,Export(US$ Mil),24911.005902
Romania,2016,World,Capital goods,Export,Export(US$ Mil),22019.066441
Romania,2016,World,Raw materials,Import,Import(US$ Mil),6756.358785
Romania,2016,World,Intermediate goods,Import,Import(US$ Mil),17421.020457
Romania,2016,World,Consumer goods,Import,Import(US$ Mil),24142.057252
Romania,2016,World,Capital goods,Import,Import(US$ Mil),23250.649816
Romania,2016,World,All Products,Export,Exports (in US$ Mil),63581.004346
Romania,2016,World,All Products,Import,Imports (in US$ Mil),74604.616829
Romania,2005,World,All Products,Tariff,Duty Free Imports (US$ Thousand),29876480.052
Romania,2016,...,...,Development,Trade Balance (current US$ Mil),-1751.765226
Romania,2016,...,...,Development,GDP (current US$ Mil),186690.59527
Romania,2005,...,...,Tariff,No. Of Tariff Agreement,13
Romania,2016,...,...,Import,No. Of Import partners,171
Romania,2016,...,...,Import,No. Of Import products,4448
Romania,2016,...,...,Export,No. Of Export partners,202
Romania,2016,...,...,Export,No. Of Export products,3987
Romania,2016,...,...,Others,Population,19705301
Romania,2016,...,...,Others,Ease of Doing Business Rank,36
Romania,2016,...,...,Others,Trading Across Borders Rank,1
Romania,2014,...,...,Others,LPI Rank,40
Romania,2014,...,...,Others,LPI Score,3.261155
Romania,,...,...,Others,Services Trade Restrictions Index - Over All,14.5
Romania,2016,Germany,All Products,Export,Partner share(%)-Top 5 Export Partner,21.5094
Romania,2016,Italy,All Products,Export,Partner share(%)-Top 5 Export Partner,11.5973
Romania,2016,France,All Products,Export,Partner share(%)-Top 5 Export Partner,7.2177
Romania,2016,Hungary,All Products,Export,Partner share(%)-Top 5 Export Partner,5.1824
Romania,2016,United Kingdom,All Products,Export,Partner share(%)-Top 5 Export Partner,4.3325
Romania,2016,Germany,All Products,Import,Partner share(%)-Top 5 Import Partner,20.4961
Romania,2016,Italy,All Products,Import,Partner share(%)-Top 5 Import Partner,10.2554
Romania,2016,Hungary,All Products,Import,Partner share(%)-Top 5 Import Partner,7.5086
Romania,2016,France,All Products,Import,Partner share(%)-Top 5 Import Partner,5.5434
Romania,2016,Poland,All Products,Import,Partner share(%)-Top 5 Import Partner,5.1382
Romania,2016,World,Animal,Export,Export Product share(%),1.3357
Romania,2016,World,Vegetable,Export,Export Product share(%),6.1442
Romania,2016,World,Food Products,Export,Export Product share(%),2.8874
Romania,2016,World,Minerals,Export,Export Product share(%),0.1316
Romania,2016,World,Fuels,Export,Export Product share(%),3.6001
Romania,2016,World,Chemicals,Export,Export Product share(%),3.0262
Romania,2016,World,Plastic or Rubber,Export,Export Product share(%),5.5485
Romania,2016,World,Hides and Skins,Export,Export Product share(%),0.6326
Romania,2016,World,Wood,Export,Export Product share(%),3.5019
Romania,2016,World,Textiles and Clothing,Export,Export Product share(%),6.7888
Romania,2016,World,Footwear,Export,Export Product share(%),2.2453
Romania,2016,World,Stone and Glass,Export,Export Product share(%),0.568
Romania,2016,World,Metals,Export,Export Product share(%),7.5932
Romania,2016,World,Mach and Elec,Export,Export Product share(%),28.8982
Romania,2016,World,Transportation,Export,Export Product share(%),17.3548
Romania,2016,World,Miscellaneous,Export,Export Product share(%),9.7434
Romania,2016,World,Raw materials,Export,Export Product share(%),7.7972
Romania,2016,World,Intermediate goods,Export,Export Product share(%),15.106
Romania,2016,World,Consumer goods,Export,Export Product share(%),39.18
Romania,2016,World,Capital goods,Export,Export Product share(%),34.6315
Romania,2016,World,Raw materials,Import,Import Product share(%),9.0562
Romania,2016,World,Intermediate goods,Import,Import Product share(%),23.3511
Romania,2016,World,Consumer goods,Import,Import Product share(%),32.36
Romania,2016,World,Capital goods,Import,Import Product share(%),31.1652
Romania,2005,World,Raw materials,Tariff,Weighted Average (%),4.09856230550921
Romania,2005,World,Intermediate goods,Tariff,Weighted Average (%),2.02842261095542
Romania,2005,World,Consumer goods,Tariff,Weighted Average (%),5.22850839836352
Romania,2005,World,Capital goods,Tariff,Weighted Average (%),1.23382742481148
Romania,2016,World,All Products,Trade Indicator,World Growth (%),-4.42938104262537
Romania,2016,World,All Products,Trade Indicator,Country Growth (%),0.287232720382402
Romania,2005,World,All Products,Tariff,Simple Average (%),6.5986179269258
Romania,2005,World,All Products,Tariff,Weighted Average (%),3.09232264030523
Romania,2005,World,All Products,Tariff,Maximum Rate (%),315
Romania,2005,World,All Products,Tariff,Duty Free Tariff Lines Share (%),60.9920065189554
Romania,2016,...,...,Trade Indicator,Index of export market penetration,9.64728730239566
Romania,2016,...,...,Trade Indicator,HH Market concentration index,0.0768633458043037
Romania,2016,...,...,Development,Trade Balance (% of GDP),-0.938325373999994
Romania,2016,...,...,Development,Trade in services (% of GDP),16.808446295
Romania,2016,...,...,Development,Trade (% of GDP),83.710649982
Romania,2016,...,...,Development,"GNI per capita, Atlas method (current US$)",9470
