Reporter,Year,Partner,Product categories,Indicator Type,Indicator,Indicator Value
,2016,United States,All Products,Export,Trade (US$ Mil)-Top 5 Export Partner,48246.114195
,2016,United Arab Emirates,All Products,Export,Trade (US$ Mil)-Top 5 Export Partner,31129.338157
,2016,"Hong Kong, China",All Products,Export,Trade (US$ Mil)-Top 5 Export Partner,13517.087289
,2016,United Kingdom,All Products,Export,Trade (US$ Mil)-Top 5 Export Partner,11175.332176
,2016,China,All Products,Export,Trade (US$ Mil)-Top 5 Export Partner,10727.289405
,2016,China,All Products,Import,Trade (US$ Mil)-Top 5 Import Partner,79812.360509
,2016,United Arab Emirates,All Products,Import,Trade (US$ Mil)-Top 5 Import Partner,27044.233656
,2016,United States,All Products,Import,Trade (US$ Mil)-Top 5 Import Partner,23057.697176
,2016,Saudi Arabia,All Products,Import,Trade (US$ Mil)-Top 5 Import Partner,20450.817196
,2016,Switzerland,All Products,Import,Trade (US$ Mil)-Top 5 Import Partner,15390.829411
,2016,World,Animal,Export,Export(US$ Mil),10575.266408
,2016,World,Vegetable,Export,Export(US$ Mil),20339.234834
,2016,World,Food Products,Export,Export(US$ Mil),7066.523684
,2016,World,Minerals,Export,Export(US$ Mil),3706.583995
,2016,World,Fuels,Export,Export(US$ Mil),28034.0645
,2016,World,Chemicals,Export,Export(US$ Mil),33996.56579
,2016,World,Plastic or Rubber,Export,Export(US$ Mil),8799.191475
,2016,World,Hides and Skins,Export,Export(US$ Mil),4282.919364
,2016,World,Wood,Export,Export(US$ Mil),2232.358956
,2016,World,Textiles and Clothing,Export,Export(US$ Mil),52934.357509
,2016,World,Footwear,Export,Export(US$ Mil),3292.184083
,2016,World,Stone and Glass,Export,Export(US$ Mil),45686.076232
,2016,World,Metals,Export,Export(US$ Mil),19810.48647
,2016,World,Mach and Elec,Export,Export(US$ Mil),22412.035005
,2016,World,Transportation,Export,Export(US$ Mil),21674.692723
,2016,World,Miscellaneous,Export,Export(US$ Mil),7300.105573
,2016,World,Raw materials,Export,Export(US$ Mil),24728.075336
,2016,World,Intermediate goods,Export,Export(US$ Mil),91348.4378089997
,2016,World,Consumer goods,Export,Export(US$ Mil),138385.70824
,2016,World,Capital goods,Export,Export(US$ Mil),36744.9922409999
,2016,World,Raw materials,Import,Import(US$ Mil),119524.203423
,2016,World,Intermediate goods,Import,Import(US$ Mil),138545.229665
,2016,World,Consumer goods,Import,Import(US$ Mil),62210.7600739999
,2016,World,Capital goods,Import,Import(US$ Mil),98547.4479100001
,2016,World,All Products,Export,Exports (in US$ Mil),292142.646591
,2016,World,All Products,Import,Imports (in US$ Mil),431865.927243
,2016,World,All Products,Tariff,Duty Free Imports (US$ Thousand),132179818.323
,2016,...,...,Development,Trade Balance (current US$ Mil),-84342.21615
,2016,...,...,Development,GDP (current US$ Mil),2896360.5971
,2016,...,...,Tariff,No. Of Tariff Agreement,186
,2016,...,...,Import,No. Of Import partners,231
,2016,...,...,Import,No. Of Import products,4535
,2016,...,...,Export,No. Of Export partners,223
,2016,...,...,Export,No. Of Export products,4475
,2016,...,...,Others,Population,1766383450
,2016,...,...,Others,CPIA Trade Ratings,3.5833333333
,2016,United States,All Products,Export,Partner share(%)-Top 5 Export Partner,16.5146
,2016,United Arab Emirates,All Products,Export,Partner share(%)-Top 5 Export Partner,10.6555
,2016,"Hong Kong, China",All Products,Export,Partner share(%)-Top 5 Export Partner,4.6269
,2016,United Kingdom,All Products,Export,Partner share(%)-Top 5 Export Partner,3.8253
,2016,China,All Products,Export,Partner share(%)-Top 5 Export Partner,3.6719
,2016,China,All Products,Import,Partner share(%)-Top 5 Import Partner,18.4808
,2016,United Arab Emirates,All Products,Import,Partner share(%)-Top 5 Import Partner,6.2622
,2016,United States,All Products,Import,Partner share(%)-Top 5 Import Partner,5.3391
,2016,Saudi Arabia,All Products,Import,Partner share(%)-Top 5 Import Partner,4.7355
,2016,Switzerland,All Products,Import,Partner share(%)-Top 5 Import Partner,3.5638
,2016,World,Animal,Export,Export Product share(%),3.6199
,2016,World,Vegetable,Export,Export Product share(%),6.9621
,2016,World,Food Products,Export,Export Product share(%),2.4189
,2016,World,Minerals,Export,Export Product share(%),1.2688
,2016,World,Fuels,Export,Export Product share(%),9.596
,2016,World,Chemicals,Export,Export Product share(%),11.637
,2016,World,Plastic or Rubber,Export,Export Product share(%),3.012
,2016,World,Hides and Skins,Export,Export Product share(%),1.466
,2016,World,Wood,Export,Export Product share(%),0.7641
,2016,World,Textiles and Clothing,Export,Export Product share(%),18.1194
,2016,World,Footwear,Export,Export Product share(%),1.1269
,2016,World,Stone and Glass,Export,Export Product share(%),15.6383
,2016,World,Metals,Export,Export Product share(%),6.7811
,2016,World,Mach and Elec,Export,Export Product share(%),7.6716
,2016,World,Transportation,Export,Export Product share(%),7.4192
,2016,World,Miscellaneous,Export,Export Product share(%),2.4988
,2016,World,Raw materials,Export,Export Product share(%),8.4644
,2016,World,Intermediate goods,Export,Export Product share(%),31.2684
,2016,World,Consumer goods,Export,Export Product share(%),47.3692
,2016,World,Capital goods,Export,Export Product share(%),12.5778
,2016,World,Raw materials,Import,Import Product share(%),27.6762
,2016,World,Intermediate goods,Import,Import Product share(%),32.0806
,2016,World,Consumer goods,Import,Import Product share(%),14.4051
,2016,World,Capital goods,Import,Import Product share(%),22.819
,2016,World,Raw materials,Tariff,Weighted Average (%),3.69971032132876
,2016,World,Intermediate goods,Tariff,Weighted Average (%),8.69284205483542
,2016,World,Consumer goods,Tariff,Weighted Average (%),11.8666138842861
,2016,World,Capital goods,Tariff,Weighted Average (%),5.35996128152097
,2016,World,All Products,Trade Indicator,World Growth (%),
,2016,World,All Products,Trade Indicator,Country Growth (%),
,2016,World,All Products,Tariff,Simple Average (%),11.1603583881113
,2016,World,All Products,Tariff,Weighted Average (%),7.30681603235181
,2016,World,All Products,Tariff,Maximum Rate (%),1815.98303222656
,2016,World,All Products,Tariff,Duty Free Tariff Lines Share (%),15.4460947352119
,2016,...,...,Trade Indicator,Index of export market penetration,
,2016,...,...,Trade Indicator,HH Market concentration index,
,2016,...,...,Development,Trade Balance (% of GDP),-2.864007563
,2016,...,...,Development,Trade (% of GDP),38.887574894
,2016,...,...,Development,"GNI per capita, Atlas method (current US$)",1615.9497989
