Reporter,Year,Partner,Product categories,Indicator Type,Indicator,Indicator Value
Uruguay,2016,Free Zones,All Products,Export,Trade (US$ Mil)-Top 5 Export Partner,1313.914145
Uruguay,2016,Brazil,All Products,Export,Trade (US$ Mil)-Top 5 Export Partner,1197.684134
Uruguay,2016,China,All Products,Export,Trade (US$ Mil)-Top 5 Export Partner,891.34861
Uruguay,2016,United States,All Products,Export,Trade (US$ Mil)-Top 5 Export Partner,451.521054
Uruguay,2016,Argentina,All Products,Export,Trade (US$ Mil)-Top 5 Export Partner,363.936165
Uruguay,2016,China,All Products,Import,Trade (US$ Mil)-Top 5 Import Partner,1532.146121
Uruguay,2016,Brazil,All Products,Import,Trade (US$ Mil)-Top 5 Import Partner,1462.391806
Uruguay,2016,Argentina,All Products,Import,Trade (US$ Mil)-Top 5 Import Partner,1084.287735
Uruguay,2016,United States,All Products,Import,Trade (US$ Mil)-Top 5 Import Partner,565.016637
Uruguay,2016,Germany,All Products,Import,Trade (US$ Mil)-Top 5 Import Partner,385.749925
Uruguay,2016,World,Animal,Export,Export(US$ Mil),2517.765373
Uruguay,2016,World,Vegetable,Export,Export(US$ Mil),1793.295977
Uruguay,2016,World,Food Products,Export,Export(US$ Mil),185.29756
Uruguay,2016,World,Minerals,Export,Export(US$ Mil),15.682312
Uruguay,2016,World,Fuels,Export,Export(US$ Mil),33.581818
Uruguay,2016,World,Chemicals,Export,Export(US$ Mil),381.658649
Uruguay,2016,World,Plastic or Rubber,Export,Export(US$ Mil),255.020064
Uruguay,2016,World,Hides and Skins,Export,Export(US$ Mil),287.293578
Uruguay,2016,World,Wood,Export,Export(US$ Mil),838.109627
Uruguay,2016,World,Textiles and Clothing,Export,Export(US$ Mil),231.732311
Uruguay,2016,World,Footwear,Export,Export(US$ Mil),0.534129
Uruguay,2016,World,Stone and Glass,Export,Export(US$ Mil),63.156342
Uruguay,2016,World,Metals,Export,Export(US$ Mil),72.485267
Uruguay,2016,World,Mach and Elec,Export,Export(US$ Mil),96.226281
Uruguay,2016,World,Transportation,Export,Export(US$ Mil),80.668464
Uruguay,2016,World,Miscellaneous,Export,Export(US$ Mil),111.044273
Uruguay,2016,World,Raw materials,Export,Export(US$ Mil),3916.445011
Uruguay,2016,World,Intermediate goods,Export,Export(US$ Mil),1651.144901
Uruguay,2016,World,Consumer goods,Export,Export(US$ Mil),1263.701213
Uruguay,2016,World,Capital goods,Export,Export(US$ Mil),132.2609
Uruguay,2016,World,Raw materials,Import,Import(US$ Mil),1148.739052
Uruguay,2016,World,Intermediate goods,Import,Import(US$ Mil),1718.848134
Uruguay,2016,World,Consumer goods,Import,Import(US$ Mil),2942.06572
Uruguay,2016,World,Capital goods,Import,Import(US$ Mil),2326.976257
Uruguay,2016,World,All Products,Export,Exports (in US$ Mil),6963.552025
Uruguay,2016,World,All Products,Import,Imports (in US$ Mil),8136.629138
Uruguay,2016,World,All Products,Tariff,Duty Free Imports (US$ Thousand),4322053.251
Uruguay,2016,...,...,Development,Trade Balance (current US$ Mil),617.379358
Uruguay,2016,...,...,Development,GDP (current US$ Mil),52419.720714
Uruguay,2016,...,...,Tariff,No. Of Tariff Agreement,56
Uruguay,2016,...,...,Import,No. Of Import partners,156
Uruguay,2016,...,...,Import,No. Of Import products,3931
Uruguay,2016,...,...,Export,No. Of Export partners,156
Uruguay,2016,...,...,Export,No. Of Export products,1807
Uruguay,2016,...,...,Others,Population,3444006
Uruguay,2016,...,...,Others,Ease of Doing Business Rank,90
Uruguay,2016,...,...,Others,Trading Across Borders Rank,146
Uruguay,2014,...,...,Others,LPI Rank,91
Uruguay,2014,...,...,Others,LPI Score,2.678649
Uruguay,2014,...,...,Others,No Of NTM Affected Products (HS 6 Digit),3077
Uruguay,2014,...,...,Others,No Of NTM Measures,62
Uruguay,2009,...,...,Others,Overall Trade Restrictiveness Index -  Applied Tariff,0.1060569
Uruguay,2009,...,...,Others,Overall Trade Restrictiveness Index - MFN Tariff,0.1371326
Uruguay,,...,...,Others,Services Trade Restrictions Index - Over All,28.4
Uruguay,2016,Free Zones,All Products,Export,Partner share(%)-Top 5 Export Partner,18.8684
Uruguay,2016,Brazil,All Products,Export,Partner share(%)-Top 5 Export Partner,17.1993
Uruguay,2016,China,All Products,Export,Partner share(%)-Top 5 Export Partner,12.8002
Uruguay,2016,United States,All Products,Export,Partner share(%)-Top 5 Export Partner,6.4841
Uruguay,2016,Argentina,All Products,Export,Partner share(%)-Top 5 Export Partner,5.2263
Uruguay,2016,China,All Products,Import,Partner share(%)-Top 5 Import Partner,18.8302
Uruguay,2016,Brazil,All Products,Import,Partner share(%)-Top 5 Import Partner,17.9729
Uruguay,2016,Argentina,All Products,Import,Partner share(%)-Top 5 Import Partner,13.326
Uruguay,2016,United States,All Products,Import,Partner share(%)-Top 5 Import Partner,6.9441
Uruguay,2016,Germany,All Products,Import,Partner share(%)-Top 5 Import Partner,4.7409
Uruguay,2016,World,Animal,Export,Export Product share(%),36.1563
Uruguay,2016,World,Vegetable,Export,Export Product share(%),25.7526
Uruguay,2016,World,Food Products,Export,Export Product share(%),2.661
Uruguay,2016,World,Minerals,Export,Export Product share(%),0.2252
Uruguay,2016,World,Fuels,Export,Export Product share(%),0.4823
Uruguay,2016,World,Chemicals,Export,Export Product share(%),5.4808
Uruguay,2016,World,Plastic or Rubber,Export,Export Product share(%),3.6622
Uruguay,2016,World,Hides and Skins,Export,Export Product share(%),4.1257
Uruguay,2016,World,Wood,Export,Export Product share(%),12.0357
Uruguay,2016,World,Textiles and Clothing,Export,Export Product share(%),3.3278
Uruguay,2016,World,Footwear,Export,Export Product share(%),0.0077
Uruguay,2016,World,Stone and Glass,Export,Export Product share(%),0.907
Uruguay,2016,World,Metals,Export,Export Product share(%),1.0409
Uruguay,2016,World,Mach and Elec,Export,Export Product share(%),1.3819
Uruguay,2016,World,Transportation,Export,Export Product share(%),1.1584
Uruguay,2016,World,Miscellaneous,Export,Export Product share(%),1.5946
Uruguay,2016,World,Raw materials,Export,Export Product share(%),56.2421
Uruguay,2016,World,Intermediate goods,Export,Export Product share(%),23.7112
Uruguay,2016,World,Consumer goods,Export,Export Product share(%),18.1474
Uruguay,2016,World,Capital goods,Export,Export Product share(%),1.8993
Uruguay,2016,World,Raw materials,Import,Import Product share(%),14.1181
Uruguay,2016,World,Intermediate goods,Import,Import Product share(%),21.1248
Uruguay,2016,World,Consumer goods,Import,Import Product share(%),36.1583
Uruguay,2016,World,Capital goods,Import,Import Product share(%),28.5988
Uruguay,2016,World,Raw materials,Tariff,Weighted Average (%),0.419533405994967
Uruguay,2016,World,Intermediate goods,Tariff,Weighted Average (%),4.19181324191175
Uruguay,2016,World,Consumer goods,Tariff,Weighted Average (%),9.87566597200819
Uruguay,2016,World,Capital goods,Tariff,Weighted Average (%),3.93966672886784
Uruguay,2016,World,All Products,Trade Indicator,World Growth (%),-4.42938104262537
Uruguay,2016,World,All Products,Trade Indicator,Country Growth (%),-4.43593703394098
Uruguay,2016,World,All Products,Tariff,Simple Average (%),9.94106418444663
Uruguay,2016,World,All Products,Tariff,Weighted Average (%),5.69500190571344
Uruguay,2016,World,All Products,Tariff,Maximum Rate (%),35
Uruguay,2016,World,All Products,Tariff,Duty Free Tariff Lines Share (%),30.1917242770575
Uruguay,2016,...,...,Trade Indicator,Index of export market penetration,2.54035519405807
Uruguay,2016,...,...,Trade Indicator,HH Market concentration index,0.0868808502984589
Uruguay,2016,...,...,Development,Trade Balance (% of GDP),1.17776163
Uruguay,2016,...,...,Development,Trade (% of GDP),41.527504866
Uruguay,2016,...,...,Development,"GNI per capita, Atlas method (current US$)",15230
