Reporter,Year,Partner,Product categories,Indicator Type,Indicator,Indicator Value
St. Vincent and the Grenadines,2015,Barbados,All Products,Export,Trade (US$ Mil)-Top 5 Export Partner,8.154089
St. Vincent and the Grenadines,2015,St. Lucia,All Products,Export,Trade (US$ Mil)-Top 5 Export Partner,7.878558
St. Vincent and the Grenadines,2015,Antigua and Barbuda,All Products,Export,Trade (US$ Mil)-Top 5 Export Partner,6.630334
St. Vincent and the Grenadines,2015,Trinidad and Tobago,All Products,Export,Trade (US$ Mil)-Top 5 Export Partner,5.507708
St. Vincent and the Grenadines,2015,Dominica,All Products,Export,Trade (US$ Mil)-Top 5 Export Partner,4.224431
St. Vincent and the Grenadines,2015,United States,All Products,Import,Trade (US$ Mil)-Top 5 Import Partner,127.367202
St. Vincent and the Grenadines,2015,Trinidad and Tobago,All Products,Import,Trade (US$ Mil)-Top 5 Import Partner,58.847025
St. Vincent and the Grenadines,2015,United Kingdom,All Products,Import,Trade (US$ Mil)-Top 5 Import Partner,24.102893
St. Vincent and the Grenadines,2015,China,All Products,Import,Trade (US$ Mil)-Top 5 Import Partner,18.022855
St. Vincent and the Grenadines,2015,Barbados,All Products,Import,Trade (US$ Mil)-Top 5 Import Partner,9.295645
St. Vincent and the Grenadines,2015,World,Animal,Export,Export(US$ Mil),0.774176
St. Vincent and the Grenadines,2015,World,Vegetable,Export,Export(US$ Mil),23.921205
St. Vincent and the Grenadines,2015,World,Food Products,Export,Export(US$ Mil),11.174368
St. Vincent and the Grenadines,2015,World,Minerals,Export,Export(US$ Mil),0.025942
St. Vincent and the Grenadines,2015,World,Fuels,Export,Export(US$ Mil),0.012043
St. Vincent and the Grenadines,2015,World,Chemicals,Export,Export(US$ Mil),0.074216
St. Vincent and the Grenadines,2015,World,Plastic or Rubber,Export,Export(US$ Mil),0.707488
St. Vincent and the Grenadines,2015,World,Hides and Skins,Export,Export(US$ Mil),0.000601
St. Vincent and the Grenadines,2015,World,Wood,Export,Export(US$ Mil),0.809705
St. Vincent and the Grenadines,2015,World,Textiles and Clothing,Export,Export(US$ Mil),0.316914
St. Vincent and the Grenadines,2015,World,Footwear,Export,Export(US$ Mil),0.009539
St. Vincent and the Grenadines,2015,World,Stone and Glass,Export,Export(US$ Mil),0.171991
St. Vincent and the Grenadines,2015,World,Metals,Export,Export(US$ Mil),3.676578
St. Vincent and the Grenadines,2015,World,Mach and Elec,Export,Export(US$ Mil),2.495859
St. Vincent and the Grenadines,2015,World,Transportation,Export,Export(US$ Mil),0.80425
St. Vincent and the Grenadines,2015,World,Miscellaneous,Export,Export(US$ Mil),0.778486
St. Vincent and the Grenadines,2015,World,Raw materials,Export,Export(US$ Mil),10.67974
St. Vincent and the Grenadines,2015,World,Intermediate goods,Export,Export(US$ Mil),16.804059
St. Vincent and the Grenadines,2015,World,Consumer goods,Export,Export(US$ Mil),14.918973
St. Vincent and the Grenadines,2015,World,Capital goods,Export,Export(US$ Mil),3.350585
St. Vincent and the Grenadines,2015,World,Raw materials,Import,Import(US$ Mil),41.740259
St. Vincent and the Grenadines,2015,World,Intermediate goods,Import,Import(US$ Mil),51.910911
St. Vincent and the Grenadines,2015,World,Consumer goods,Import,Import(US$ Mil),184.606623
St. Vincent and the Grenadines,2015,World,Capital goods,Import,Import(US$ Mil),55.452331
St. Vincent and the Grenadines,2015,World,All Products,Export,Exports (in US$ Mil),45.75336
St. Vincent and the Grenadines,2015,World,All Products,Import,Imports (in US$ Mil),333.710126
St. Vincent and the Grenadines,2015,World,All Products,Tariff,Duty Free Imports (US$ Thousand),175986.17
St. Vincent and the Grenadines,2016,...,...,Development,Trade Balance (current US$ Mil),-195.66837037
St. Vincent and the Grenadines,2016,...,...,Development,GDP (current US$ Mil),770.79655556
St. Vincent and the Grenadines,2015,...,...,Tariff,No. Of Tariff Agreement,3
St. Vincent and the Grenadines,2015,...,...,Import,No. Of Import partners,141
St. Vincent and the Grenadines,2015,...,...,Import,No. Of Import products,2910
St. Vincent and the Grenadines,2015,...,...,Export,No. Of Export partners,41
St. Vincent and the Grenadines,2015,...,...,Export,No. Of Export products,599
St. Vincent and the Grenadines,2016,...,...,Others,Population,109643
St. Vincent and the Grenadines,2016,...,...,Others,Ease of Doing Business Rank,125
St. Vincent and the Grenadines,2016,...,...,Others,Trading Across Borders Rank,88
St. Vincent and the Grenadines,2016,...,...,Others,CPIA Trade Ratings,4
St. Vincent and the Grenadines,2015,Barbados,All Products,Export,Partner share(%)-Top 5 Export Partner,17.8218
St. Vincent and the Grenadines,2015,St. Lucia,All Products,Export,Partner share(%)-Top 5 Export Partner,17.2196
St. Vincent and the Grenadines,2015,Antigua and Barbuda,All Products,Export,Partner share(%)-Top 5 Export Partner,14.4915
St. Vincent and the Grenadines,2015,Trinidad and Tobago,All Products,Export,Partner share(%)-Top 5 Export Partner,12.0378
St. Vincent and the Grenadines,2015,Dominica,All Products,Export,Partner share(%)-Top 5 Export Partner,9.2331
St. Vincent and the Grenadines,2015,United States,All Products,Import,Partner share(%)-Top 5 Import Partner,38.167
St. Vincent and the Grenadines,2015,Trinidad and Tobago,All Products,Import,Partner share(%)-Top 5 Import Partner,17.6342
St. Vincent and the Grenadines,2015,United Kingdom,All Products,Import,Partner share(%)-Top 5 Import Partner,7.2227
St. Vincent and the Grenadines,2015,China,All Products,Import,Partner share(%)-Top 5 Import Partner,5.4008
St. Vincent and the Grenadines,2015,Barbados,All Products,Import,Partner share(%)-Top 5 Import Partner,2.7855
St. Vincent and the Grenadines,2015,World,Animal,Export,Export Product share(%),1.6921
St. Vincent and the Grenadines,2015,World,Vegetable,Export,Export Product share(%),52.2829
St. Vincent and the Grenadines,2015,World,Food Products,Export,Export Product share(%),24.4231
St. Vincent and the Grenadines,2015,World,Minerals,Export,Export Product share(%),0.0567
St. Vincent and the Grenadines,2015,World,Fuels,Export,Export Product share(%),0.0263
St. Vincent and the Grenadines,2015,World,Chemicals,Export,Export Product share(%),0.1622
St. Vincent and the Grenadines,2015,World,Plastic or Rubber,Export,Export Product share(%),1.5463
St. Vincent and the Grenadines,2015,World,Hides and Skins,Export,Export Product share(%),0.0013
St. Vincent and the Grenadines,2015,World,Wood,Export,Export Product share(%),1.7697
St. Vincent and the Grenadines,2015,World,Textiles and Clothing,Export,Export Product share(%),0.6927
St. Vincent and the Grenadines,2015,World,Footwear,Export,Export Product share(%),0.0208
St. Vincent and the Grenadines,2015,World,Stone and Glass,Export,Export Product share(%),0.3759
St. Vincent and the Grenadines,2015,World,Metals,Export,Export Product share(%),8.0356
St. Vincent and the Grenadines,2015,World,Mach and Elec,Export,Export Product share(%),5.455
St. Vincent and the Grenadines,2015,World,Transportation,Export,Export Product share(%),1.7578
St. Vincent and the Grenadines,2015,World,Miscellaneous,Export,Export Product share(%),1.7015
St. Vincent and the Grenadines,2015,World,Raw materials,Export,Export Product share(%),23.342
St. Vincent and the Grenadines,2015,World,Intermediate goods,Export,Export Product share(%),36.7275
St. Vincent and the Grenadines,2015,World,Consumer goods,Export,Export Product share(%),32.6074
St. Vincent and the Grenadines,2015,World,Capital goods,Export,Export Product share(%),7.3231
St. Vincent and the Grenadines,2015,World,Raw materials,Import,Import Product share(%),12.5079
St. Vincent and the Grenadines,2015,World,Intermediate goods,Import,Import Product share(%),15.5557
St. Vincent and the Grenadines,2015,World,Consumer goods,Import,Import Product share(%),55.3195
St. Vincent and the Grenadines,2015,World,Capital goods,Import,Import Product share(%),16.6169
St. Vincent and the Grenadines,2015,World,Raw materials,Tariff,Weighted Average (%),4.98663692096492
St. Vincent and the Grenadines,2015,World,Intermediate goods,Tariff,Weighted Average (%),5.65629138592857
St. Vincent and the Grenadines,2015,World,Consumer goods,Tariff,Weighted Average (%),7.62509767922278
St. Vincent and the Grenadines,2015,World,Capital goods,Tariff,Weighted Average (%),8.01062372999872
St. Vincent and the Grenadines,2015,World,All Products,Trade Indicator,World Growth (%),-6.46948488332547
St. Vincent and the Grenadines,2015,World,All Products,Trade Indicator,Country Growth (%),12.3503985877442
St. Vincent and the Grenadines,2015,World,All Products,Tariff,Simple Average (%),10.1944590158633
St. Vincent and the Grenadines,2015,World,All Products,Tariff,Weighted Average (%),7.14562572329453
St. Vincent and the Grenadines,2015,World,All Products,Tariff,Maximum Rate (%),40
St. Vincent and the Grenadines,2015,World,All Products,Tariff,Duty Free Tariff Lines Share (%),25.0766068034599
St. Vincent and the Grenadines,2015,...,...,Trade Indicator,Index of export market penetration,1.14401372816474
St. Vincent and the Grenadines,2015,...,...,Trade Indicator,HH Market concentration index,0.26004803004496
St. Vincent and the Grenadines,2016,...,...,Development,Trade Balance (% of GDP),-25.385215977
St. Vincent and the Grenadines,2016,...,...,Development,Trade (% of GDP),76.778601377
St. Vincent and the Grenadines,2016,...,...,Development,"GNI per capita, Atlas method (current US$)",6790
